<svg xmlns="http://www.w3.org/2000/svg" xmlns:xlink="http://www.w3.org/1999/xlink" width="301.469" height="344.505" viewBox="0 0 301.469 344.505">
  <defs>
    <filter id="Path_607" x="224.345" y="99.55" width="44.729" height="32.988" filterUnits="userSpaceOnUse">
      <feOffset dy="3" input="SourceAlpha"/>
      <feGaussianBlur stdDeviation="3" result="blur"/>
      <feFlood flood-opacity="0.161"/>
      <feComposite operator="in" in2="blur"/>
      <feComposite in="SourceGraphic"/>
    </filter>
    <linearGradient id="linear-gradient" x1="-0.241" y1="-7.581" x2="2.455" y2="20.475" gradientUnits="objectBoundingBox">
      <stop offset="0" stop-color="#4b4442"/>
      <stop offset="1" stop-color="#fff"/>
    </linearGradient>
    <linearGradient id="linear-gradient-2" x1="0.296" y1="1.116" x2="0.695" y2="-0.08" gradientUnits="objectBoundingBox">
      <stop offset="0" stop-color="#fff"/>
      <stop offset="1" stop-color="#c6c6c6"/>
    </linearGradient>
    <linearGradient id="linear-gradient-3" x1="-0.063" y1="3.757" x2="1.017" y2="-2.46" gradientUnits="objectBoundingBox">
      <stop offset="0" stop-color="#1c1c1c"/>
      <stop offset="1" stop-color="#adadad"/>
    </linearGradient>
  </defs>
  <g id="Group_1178" data-name="Group 1178" transform="translate(3216.563 -83)">
    <g id="Background" transform="translate(-3206.097 150.398)">
      <rect id="Rectangle_97" data-name="Rectangle 97" width="241.446" height="188.413" transform="translate(41.842 57.71)" fill="#b7baba" opacity="0.13"/>
      <rect id="Rectangle_98" data-name="Rectangle 98" width="241.446" height="188.413" transform="translate(0)" fill="#cbcbcb" opacity="0.13"/>
    </g>
    <g id="Magnifying_Icon_1_" transform="translate(-2974.924 256.046)">
      <g id="Group_259" data-name="Group 259" transform="translate(32.524 33.885)">
        <rect id="Rectangle_99" data-name="Rectangle 99" width="3.424" height="6.932" transform="matrix(0.747, -0.665, 0.665, 0.747, 0, 2.278)" fill="#080a08"/>
      </g>
      <g id="Group_261" data-name="Group 261" transform="translate(0 0)">
        <g id="Group_260" data-name="Group 260">
          <path id="Path_531" data-name="Path 531" d="M466.545,457.29a20.545,20.545,0,1,1,20.545-20.545A20.584,20.584,0,0,1,466.545,457.29Zm0-37.332a16.787,16.787,0,1,0,16.787,16.787A16.788,16.788,0,0,0,466.545,419.958Z" transform="translate(-446 -416.2)" fill="#535786"/>
        </g>
      </g>
      <g id="Group_262" data-name="Group 262" transform="translate(35.241 37.133)">
        <path id="Path_532" data-name="Path 532" d="M488.534,467.124l17.2,19.292a1.336,1.336,0,0,0,1.921.084l4.677-4.176a1.336,1.336,0,0,0,.083-1.921l-17.2-19.292a1.336,1.336,0,0,0-1.921-.084l-4.677,4.176A1.414,1.414,0,0,0,488.534,467.124Z" transform="translate(-488.197 -460.662)" fill="#535786"/>
      </g>
    </g>
    <g id="Location_Icon" transform="translate(-3188.725 306.155)">
      <path id="Path_533" data-name="Path 533" d="M219.314,495.993h0a15.033,15.033,0,1,0-28.563,0h0a20.4,20.4,0,0,0,.835,2l13.446,32.321L218.479,498a20.4,20.4,0,0,0,.835-2Z" transform="translate(-190 -476.2)" fill="#c5c9dd"/>
      <g id="Ellipse_31" data-name="Ellipse 31" transform="translate(9.725 11.845)" fill="#fff" stroke="#535786" stroke-width="1">
        <circle cx="5.5" cy="5.5" r="5.5" stroke="none"/>
        <circle cx="5.5" cy="5.5" r="5" fill="none"/>
      </g>
    </g>
    <g id="Man" transform="translate(-3184.884 97.448)">
      <g id="Group_263" data-name="Group 263" transform="translate(0 0)">
        <path id="Path_535" data-name="Path 535" d="M385.6,370.867c-.668-1.587-1.336-3.257-1.837-4.844l1-.334q.752,2.38,1.754,4.76Zm-145.986-1.5c-1.587,0-3.174-.083-4.677-.167l.084-1c1.5.084,3.09.167,4.593.167h.418v1Zm5.6-.334-.084-1a34.657,34.657,0,0,0,5.011-.752l.251,1A29.648,29.648,0,0,1,245.211,369.029Zm-15.367-.585a44.017,44.017,0,0,1-5.011-1.169l.251-1a47.058,47.058,0,0,0,4.927,1.169Zm-9.938-2.923a39.464,39.464,0,0,1-4.593-2.338l.5-.835a37.855,37.855,0,0,0,4.51,2.255ZM382.512,361.1a35.465,35.465,0,0,1-.668-5.094l1-.084c.167,1.67.334,3.341.668,5.011Zm-171.459-.835a37.357,37.357,0,0,1-3.758-3.508l.752-.668a46.981,46.981,0,0,0,3.675,3.424Zm-7.015-7.516a25.967,25.967,0,0,1-2.673-4.426l.919-.5a36.643,36.643,0,0,0,2.673,4.259Zm178.725-1.921-1-.084c.084-1.67.251-3.424.5-5.094l1,.167Q382.887,348.317,382.762,350.823ZM199.11,343.64c-.585-1.5-1.169-3.174-1.67-4.844l1-.251c.5,1.67,1.086,3.257,1.67,4.76Zm185.239-2.756-1-.251a41.978,41.978,0,0,1,1.587-4.927l.919.334C385.268,337.711,384.767,339.3,384.349,340.884Zm-188.162-7.1a46.32,46.32,0,0,1-.835-5.094l1-.167c.251,1.67.5,3.424.835,5.011Zm191.586-2.422-.919-.418c.668-1.5,1.42-3.007,2.255-4.593l.919.5A45.384,45.384,0,0,0,387.773,331.363ZM194.767,323.68c-.084-1.169-.167-2.338-.167-3.508V318.5h1v1.67c0,1.086.084,2.255.167,3.424Zm197.6-1.336-.919-.5c.752-1.336,1.587-2.84,2.589-4.426l.835.5C393.953,319.5,393.118,321.007,392.367,322.344Zm5.262-8.769-.835-.5.418-.752c.752-1.253,1.5-2.422,2.255-3.675l.835.5c-.752,1.169-1.5,2.422-2.255,3.675Zm-201.358,0-1-.167a28.3,28.3,0,0,1,1.42-4.927l.919.334A28.5,28.5,0,0,0,196.27,313.574Zm206.619-8.769-.919-.5c.919-1.587,1.754-3.09,2.422-4.426l.919.5C404.643,301.715,403.808,303.218,402.89,304.805Zm-203.028-.418-.835-.585a24.457,24.457,0,0,1,3.257-4.009l.752.752A26.683,26.683,0,0,0,199.862,304.388Zm7.015-6.932-.585-.835a44.152,44.152,0,0,1,4.426-2.589l.418.919A35.635,35.635,0,0,0,206.877,297.456Zm200.69-1.754-.919-.418a48.34,48.34,0,0,0,1.754-4.76l1,.334A51.087,51.087,0,0,1,407.566,295.7Zm-191.753-2.756-.334-.919c1.5-.585,3.174-1.086,4.844-1.67l.334,1A41.123,41.123,0,0,0,215.813,292.946Zm9.771-3.007-.251-1c1.587-.418,3.174-.752,5.011-1.169l.251,1C228.758,289.188,227.088,289.605,225.585,289.939Zm9.938-2.088-.167-1c1.67-.334,3.341-.668,5.011-.919l.167,1C238.864,287.183,237.193,287.517,235.523,287.852Zm10.022-1.837-.167-1c1.67-.334,3.341-.585,5.011-.919l.167,1C248.969,285.346,247.215,285.68,245.545,286.014Zm164.945-.167-1-.167a25.953,25.953,0,0,0,.251-3.591v-1.42l1-.084v1.5A14.484,14.484,0,0,1,410.49,285.847ZM255.65,284.093l-.167-1c1.754-.334,3.424-.668,5.011-1.086l.251,1C259.075,283.342,257.4,283.676,255.65,284.093Zm9.938-2.255-.251-1c1.67-.418,3.341-.919,4.927-1.336l.334,1C269.013,280.92,267.343,281.337,265.589,281.838Zm9.855-3.007-.334-1c1.67-.585,3.257-1.169,4.76-1.837l.418.919A48.69,48.69,0,0,1,275.444,278.832Zm133.877-3.174c-.251-1.67-.5-3.341-.919-5.011l1-.251a49.879,49.879,0,0,1,.919,5.094Zm-124.439-.835-.418-.919c1.5-.752,3.007-1.587,4.426-2.422l.5.835A39.1,39.1,0,0,1,284.881,274.823Zm8.769-5.345-.585-.835c1.336-1,2.673-2.088,3.925-3.174l.668.752A37.894,37.894,0,0,1,293.65,269.478ZM407.065,265.8a45.283,45.283,0,0,0-1.837-4.677l.919-.418a48.189,48.189,0,0,1,1.837,4.844ZM301.334,262.63l-.752-.668c1.086-1.253,2.171-2.589,3.174-3.925l.835.585Q302.962,260.75,301.334,262.63Zm101.639-6.1c-.835-1.42-1.754-2.923-2.673-4.259l.835-.585c1,1.42,1.921,2.923,2.756,4.343Zm-95.626-2.171-.919-.5.251-.334a40.1,40.1,0,0,1,2.505-4.009l.835.585c-.835,1.253-1.67,2.589-2.422,3.925Zm89.864-6.1c-1.086-1.253-2.255-2.505-3.424-3.758l.752-.752q1.879,1.879,3.508,3.758Zm-84.184-2.255-.752-.668c1.086-1.336,2.255-2.589,3.424-3.842l.752.752A49.494,49.494,0,0,0,313.026,246.01Zm77.086-4.927c-1.253-1.086-2.673-2.088-4.009-3.09l.585-.835c1.42,1,2.756,2,4.092,3.09Zm-69.987-2.255-.668-.752a47.767,47.767,0,0,1,4.092-3.09l.585.835Q322.129,237.2,320.125,238.827Zm61.719-3.508a38.244,38.244,0,0,0-4.51-2.338l.418-.919a48.178,48.178,0,0,1,4.593,2.422Zm-53.283-2.088-.5-.919a47.511,47.511,0,0,1,4.677-2.171l.418.919A38.73,38.73,0,0,0,328.56,233.232Zm44.1-2.255c-1.587-.585-3.174-1.086-4.844-1.587l.251-1c1.67.418,3.257,1,4.927,1.587Zm-34.743-1.587-.251-1a36.21,36.21,0,0,1,5.011-1.169l.167,1C341.171,228.555,339.5,228.973,337.914,229.39Zm24.971-1.086a34.351,34.351,0,0,0-5.011-.668l.084-1c1.67.167,3.424.418,5.094.752Zm-15.116-.752-.084-1a47.046,47.046,0,0,1,4.844-.251h.334v1h-.334C350.942,227.386,349.356,227.386,347.769,227.553Z" transform="translate(-194.6 -226.3)" fill="#423664"/>
      </g>
      <path id="Path_536" data-name="Path 536" d="M420.31,434.2c.083-.5,4.677-13.7,4.677-13.7s-.919-3.257-2.589-2.589a2.837,2.837,0,0,0-2.756-2.088s-.418-3.174-2.088-2.505l5.512-13.947a1.6,1.6,0,0,0-.919-2.088h0a1.651,1.651,0,0,0-2,.835l-5.846,13.53-1.587,2.84s-.251-4.176-2.171-5.094l-2.338,6.848,2.255,9.771-.251,6.681,6.347,12.11Z" transform="translate(-229.809 -254.471)" fill="#f3c0a3"/>
      <path id="Path_537" data-name="Path 537" d="M255.9,430.107c0-.5-2-14.281-2-14.281s1.5-3.09,3.09-2a2.833,2.833,0,0,1,3.09-1.5s1-3.09,2.589-2l-2.756-14.782a1.594,1.594,0,0,1,1.253-1.837h0A1.656,1.656,0,0,1,263,394.864l3.257,14.365,1,3.09s1-4.092,3.09-4.593l1,7.182-4.092,9.187-1,6.6Z" transform="translate(-204.375 -253.888)" fill="#f3c0a3"/>
      <path id="Path_538" data-name="Path 538" d="M348.635,541.689l-1.086,18.791L294.6,545.03l.418-5.93Z" transform="translate(-211.084 -277.861)" opacity="0.17"/>
      <path id="Path_539" data-name="Path 539" d="M332.542,433.58,313.5,431.993c0-.668,2.338-14.782,3.007-18.791a9.45,9.45,0,0,1,.167-1l3.257.251,12.277.919.167,8.268Z" transform="translate(-214.199 -256.943)" fill="#f3c0a3"/>
      <path id="Path_540" data-name="Path 540" d="M332.885,421.67c-2.589,1.169-12.193,4.51-15.785-8.435l3.424-.835,12.277.919Z" transform="translate(-214.793 -256.976)" opacity="0.17"/>
      <path id="Path_541" data-name="Path 541" d="M313.026,402.414s3.007,9.688,11.108,10.44c0,0,8.185.752,12.611-13.363,0,0,3.007-9.688,0-19.292,0,0-12.611-5.178-20.044-.752,0,0-6.681,5.178-6.681,10.44v3.675S304.09,397.987,313.026,402.414Z" transform="translate(-213.308 -251.249)" fill="#f3c0a3"/>
      <path id="Path_542" data-name="Path 542" d="M312.062,397.447c0-.668-5.262-4.259-5.262-12.11a2.173,2.173,0,0,1,1.921-2.171,2.467,2.467,0,0,1,1.086.167s-6.6-20.712,26.725-10.857c1.169.334,3.424.919,4.259,2.923.835,1.921,1.754,7.182-2,10.189,0,0,3.007,6.431-1.42,9.187,0,0-1.5-6.932-1.5-9.855,0,0-9.688,1.5-17.121-4.426,0,0-4.426.752-5.178,8.185Z" transform="translate(-213.095 -249.957)" fill="#423664"/>
      <path id="Path_543" data-name="Path 543" d="M394.983,445.656,379.2,471.964a14.214,14.214,0,0,1-19.292,5.011l-13.947-7.851-4.593,58.211-8.185-.251-47.437-1.336,1-60.716L257.265,476.39a6.722,6.722,0,0,1-9.771-6.6l3.09-36.914,15.785.5-2,18.374,18.875-16.369L303.7,427.7s10.69,9.187,18.374,1l27.56,13.279,19.376,16.87,13.279-24.47Z" transform="translate(-203.314 -259.498)" fill="#c5c9dd"/>
      <circle id="Ellipse_18" data-name="Ellipse 18" cx="4.844" cy="4.844" r="4.844" transform="translate(50.351 137.727) rotate(-21.081)" fill="#6ccfcc" opacity="0.5"/>
      <g id="Group_264" data-name="Group 264" transform="translate(46.964 130.648)">
        <path id="Path_544" data-name="Path 544" d="M260.41,402a8.6,8.6,0,0,1-3.842-.835,9.431,9.431,0,0,1-5.095-5.345,9.731,9.731,0,0,1,.167-7.349,9.43,9.43,0,0,1,5.345-5.094,9.731,9.731,0,0,1,7.349.167,9.431,9.431,0,0,1,5.095,5.345,9.731,9.731,0,0,1-.167,7.349,9.43,9.43,0,0,1-5.345,5.094A10.435,10.435,0,0,1,260.41,402Zm0-18.374a8.526,8.526,0,0,0-3.174.585,8.719,8.719,0,0,0-4.844,4.593,8.821,8.821,0,0,0-.167,6.681,8.719,8.719,0,0,0,4.593,4.844,8.821,8.821,0,0,0,6.681.167,8.719,8.719,0,0,0,4.844-4.593,8.821,8.821,0,0,0,.167-6.681,8.719,8.719,0,0,0-4.593-4.844A8.268,8.268,0,0,0,260.41,383.624Z" transform="translate(-250.834 -382.734)" fill="#0c0c0c"/>
      </g>
      <g id="Group_265" data-name="Group 265" transform="translate(42.009 124.606)">
        <path id="Path_545" data-name="Path 545" d="M245.7,384.569a14.929,14.929,0,0,1,8.519-8.185V375.8a15.317,15.317,0,0,0-9.02,8.769Z" transform="translate(-244.949 -375.549)" fill="#0c0c0c"/>
        <path id="Path_546" data-name="Path 546" d="M277.487,399.684a15.058,15.058,0,0,1-9.187,8.853v.5a15.859,15.859,0,0,0,9.771-9.437h-.585Z" transform="translate(-248.757 -379.473)" fill="#0c0c0c"/>
        <path id="Path_547" data-name="Path 547" d="M268.2,376.085a15.11,15.11,0,0,1,9.02,8.352h.585a15.88,15.88,0,0,0-9.6-8.936Z" transform="translate(-248.741 -375.5)" fill="#0c0c0c"/>
        <path id="Path_548" data-name="Path 548" d="M254.17,408.486a14.859,14.859,0,0,1-8.686-8.686H244.9a15.867,15.867,0,0,0,9.27,9.27Z" transform="translate(-244.9 -379.506)" fill="#0c0c0c"/>
      </g>
      <circle id="Ellipse_19" data-name="Ellipse 19" cx="4.844" cy="4.844" r="4.844" transform="translate(185.638 140.82) rotate(-21.328)" fill="#6ccfcc" opacity="0.5"/>
      <g id="Group_266" data-name="Group 266" transform="translate(182.231 133.708)">
        <path id="Path_549" data-name="Path 549" d="M422.4,405.608a8.857,8.857,0,0,1-3.842-.835,9.537,9.537,0,0,1-5.095-5.262,9.357,9.357,0,0,1,.167-7.349,9.537,9.537,0,0,1,5.262-5.094,9.357,9.357,0,0,1,7.349.167,9.537,9.537,0,0,1,5.095,5.262h0a9.357,9.357,0,0,1-.167,7.349,9.537,9.537,0,0,1-5.262,5.094A8.723,8.723,0,0,1,422.4,405.608Zm0-18.29a8.232,8.232,0,0,0-3.174.585,8.6,8.6,0,0,0-4.844,4.677,8.821,8.821,0,0,0-.167,6.681,8.6,8.6,0,0,0,4.677,4.844,8.821,8.821,0,0,0,6.681.167,8.6,8.6,0,0,0,4.844-4.677,8.821,8.821,0,0,0,.167-6.681,8.886,8.886,0,0,0-8.185-5.6Z" transform="translate(-412.798 -386.398)" fill="#0c0c0c"/>
      </g>
      <g id="Group_267" data-name="Group 267" transform="translate(177.305 127.78)">
        <path id="Path_550" data-name="Path 550" d="M407.685,388.253a15.443,15.443,0,0,1,8.435-8.268V379.4a15.791,15.791,0,0,0-9.02,8.769Z" transform="translate(-406.933 -379.316)" fill="#0c0c0c"/>
        <path id="Path_551" data-name="Path 551" d="M439.487,403.3a15.2,15.2,0,0,1-9.187,8.936v.5a15.526,15.526,0,0,0,9.688-9.437Z" transform="translate(-410.757 -383.256)" fill="#0c0c0c"/>
        <path id="Path_552" data-name="Path 552" d="M430.1,379.8a14.872,14.872,0,0,1,9.02,8.352h.585a15.75,15.75,0,0,0-9.6-8.853Z" transform="translate(-410.724 -379.3)" fill="#0c0c0c"/>
        <path id="Path_553" data-name="Path 553" d="M416.254,412.186a15.226,15.226,0,0,1-8.769-8.686H406.9a15.51,15.51,0,0,0,9.27,9.187Z" transform="translate(-406.9 -383.289)" fill="#0c0c0c"/>
      </g>
      <path id="Path_554" data-name="Path 554" d="M362.878,477.4l-4.593,58.127-8.185-.167Z" transform="translate(-220.232 -267.691)" opacity="0.17"/>
      <path id="Path_555" data-name="Path 555" d="M312.736,607.917l6.848-41.257v41.257h24.136l2.84-47.437,1.086-18.791L294.029,539.1l-.418,5.93L288.6,607.917Z" transform="translate(-210.095 -277.861)" fill="#535786"/>
    </g>
    <g id="Ellipse_129" data-name="Ellipse 129" transform="translate(-3099 83)" fill="#fff" stroke="#cfd2e2" stroke-width="3">
      <circle cx="35" cy="35" r="35" stroke="none"/>
      <circle cx="35" cy="35" r="33.5" fill="none"/>
    </g>
    <g id="Ellipse_130" data-name="Ellipse 130" transform="translate(-3010 148)" fill="#fff" stroke="#cfd2e2" stroke-width="3">
      <circle cx="35" cy="35" r="35" stroke="none"/>
      <circle cx="35" cy="35" r="33.5" fill="none"/>
    </g>
    <g id="Ellipse_131" data-name="Ellipse 131" transform="translate(-3211 135)" fill="#fff" stroke="#c6cade" stroke-width="3">
      <circle cx="35" cy="35" r="35" stroke="none"/>
      <circle cx="35" cy="35" r="33.5" fill="none"/>
    </g>
    <path id="Path_2375" data-name="Path 2375" d="M142.7,291.031l-18.973-30.085a2.033,2.033,0,0,0-3.439,0l-18.973,30.085a2.033,2.033,0,0,0,3.439,2.168l9.326-14.788,5.895,3.713v9.991a2.033,2.033,0,1,0,4.066,0v-9.991l5.895-3.713,9.326,14.788a2.033,2.033,0,0,0,3.439-2.169Zm-26.451-16.058,3.726-5.909v8.256Zm7.792,2.347v-8.256l3.726,5.909Z" transform="translate(-3186.197 -132.576)" fill="#939393"/>
    <path id="Path_2376" data-name="Path 2376" d="M258.032,292.116v-9.991l5.895-3.713,9.326,14.788a2.033,2.033,0,1,0,3.439-2.168l-18.973-30.085A2.033,2.033,0,0,0,256,260v34.151A2.033,2.033,0,0,0,258.032,292.116Zm0-23.051,3.726,5.909-3.726,2.347Z" transform="translate(-3320.192 -132.577)" fill="#4d4d4d"/>
    <path id="Path_2377" data-name="Path 2377" d="M199.3,0H183.033A2.033,2.033,0,0,0,181,2.033V37.268a2.033,2.033,0,0,0,2.033,2.033H199.3a2.033,2.033,0,0,0,2.033-2.033V2.033A2.033,2.033,0,0,0,199.3,0Zm-2.033,27.781a2.033,2.033,0,0,1-2.033,2.033H187.1a2.033,2.033,0,0,1-2.033-2.033V4.066h12.2Z" transform="translate(-3255.357 92.187)" fill="#939393"/>
    <path id="Path_2378" data-name="Path 2378" d="M264.131,0H256V4.066h6.1V27.781a2.033,2.033,0,0,1-2.033,2.033H256V39.3h8.131a2.033,2.033,0,0,0,2.033-2.033V2.033A2.033,2.033,0,0,0,264.131,0Z" transform="translate(-3320.193 92.187)" fill="#535786"/>
    <path id="Path_2379" data-name="Path 2379" d="M339.809,130h-6.776a2.033,2.033,0,1,0,0,4.066h6.776Z" transform="translate(-3385.029 -20.196)" fill="#939393"/>
    <path id="Path_2380" data-name="Path 2380" d="M127.1,84.066h-4.066a2.033,2.033,0,0,1,0-4.066H127.1a2.033,2.033,0,0,1,0,4.066Z" transform="translate(-3203.488 23.028)" fill="#939393"/>
    <path id="Path_2381" data-name="Path 2381" d="M211,205h12.2v7.454H211Z" transform="translate(-3281.292 -85.032)" fill="#4d4d4d"/>
    <path id="Path_2382" data-name="Path 2382" d="M256,205h6.1v7.454H256Z" transform="translate(-3320.193 -85.032)" fill="#dedede"/>
    <path id="Path_2383" data-name="Path 2383" d="M6.206,0A6.206,6.206,0,1,1,0,6.206,6.206,6.206,0,0,1,6.206,0Z" transform="translate(-3070.423 101.643)" fill="#7e7e7e"/>
    <path id="Path_2384" data-name="Path 2384" d="M256,70.018V82.21c.184,0,.369-.006.556-.022A6.1,6.1,0,0,0,256,70.018Z" transform="translate(-3320.193 31.658)" fill="#00337a"/>
    <circle id="Ellipse_132" data-name="Ellipse 132" cx="2.069" cy="2.069" r="2.069" transform="translate(-3066.286 105.781)" fill="#f1f1f4"/>
    <path id="Path_2385" data-name="Path 2385" d="M258.033,102.033A2.035,2.035,0,0,0,256,100v4.066A2.035,2.035,0,0,0,258.033,102.033Z" transform="translate(-3320.193 5.739)" fill="#e2dff4"/>
    <path id="Path_2386" data-name="Path 2386" d="M307.1,75.749h-4.066A2.033,2.033,0,0,1,301,73.716V52.033A2.033,2.033,0,0,1,303.033,50H307.1a2.033,2.033,0,0,1,2.033,2.033V73.716A2.033,2.033,0,0,1,307.1,75.749Z" transform="translate(-3360.095 48.963)" fill="#f1f1f4"/>
    <path id="Path_2387" data-name="Path 2387" d="M157.1,75.749h-4.066A2.033,2.033,0,0,1,151,73.716V52.033A2.033,2.033,0,0,1,153.033,50H157.1a2.033,2.033,0,0,1,2.033,2.033V73.716A2.033,2.033,0,0,1,157.1,75.749Z" transform="translate(-3229.423 48.963)" fill="#f1f1f4"/>
    <path id="Path_2388" data-name="Path 2388" d="M383.033,100A2.033,2.033,0,0,0,381,102.033v8.131a2.033,2.033,0,1,0,4.066,0v-8.131A2.033,2.033,0,0,0,383.033,100Z" transform="translate(-3428.253 5.739)" fill="#535353"/>
    <g id="Group_1176" data-name="Group 1176" transform="translate(-2996.638 131.487)">
      <g id="Group_298" data-name="Group 298" transform="translate(0 0)">
        <g id="Group_296" data-name="Group 296" transform="translate(1.338 0)">
          <g transform="matrix(1, 0, 0, 1, -221.26, -48.49)" filter="url(#Path_607)">
            <path id="Path_607-2" data-name="Path 607" d="M308.265,109.127c7.316.481,12.473,4.2,11.515,8.313s-7.67,7.053-14.987,6.573-12.471-4.2-11.513-8.315S300.95,108.646,308.265,109.127Z" transform="translate(-59.82 -3.53)" fill="#fff" fill-rule="evenodd"/>
          </g>
          <path id="Path_608" data-name="Path 608" d="M326.6,129.6l-.838-.5.8-.027Z" transform="translate(-294.882 -60.48)" fill="#231f20" fill-rule="evenodd"/>
          <path id="Path_609" data-name="Path 609" d="M323.847,122.292s-.41,2.477.642,1.984c.448-.21.386.735.351,1.071-.1.319-.884.792-1.773,1.157-.05-.144-.006-.337-.08-.3-.517.268-.626.895-1.179,1.387a4.048,4.048,0,0,1-3.615.561c-.67-.271-.911-.507-.693-1.188a13.987,13.987,0,0,1,2.3-1.505,4.4,4.4,0,0,0,1.84-2.4c.107-.314.452-1.27.452-1.27S322.663,121.59,323.847,122.292Z" transform="translate(-291.353 -57.386)" fill="#414042" fill-rule="evenodd"/>
          <path id="Path_610" data-name="Path 610" d="M323.979,122.292a3.53,3.53,0,0,1,.818,2.431c-.048.332-.9,1.019-1.639,1.259-.929.3-.851.688-1.287,1.075a3.331,3.331,0,0,1-3.942.364c-.333-.271-.171-.787,0-1.028a7.39,7.39,0,0,1,1.992-1.261,3.273,3.273,0,0,0,1.611-2.823c.107-.314.7-.514.7-.514S322.8,121.59,323.979,122.292Z" transform="translate(-291.486 -57.386)" fill="#808285" fill-rule="evenodd"/>
          <path id="Path_611" data-name="Path 611" d="M324.42,120.88a3.763,3.763,0,0,1,.36,2.178c-.049.332-.905,1.02-1.639,1.259-.928.3-.851.688-1.287,1.075a3.331,3.331,0,0,1-3.942.364c-.333-.271-.171-.787,0-1.028a7.355,7.355,0,0,1,1.992-1.261c1.635-.849,1.628-3.131,1.481-4.44a2.259,2.259,0,0,0,2.878-.74A6.431,6.431,0,0,0,324.42,120.88Z" transform="translate(-291.478 -55.913)" fill="#3c3939" fill-rule="evenodd"/>
          <g id="Group_276" data-name="Group 276" transform="translate(29.794 63.389)">
            <path id="Path_612" data-name="Path 612" d="M324.711,120.6a.929.929,0,0,1-.806-.324.147.147,0,1,1,.248-.158c.161.253.877.25,1.367-.008a.147.147,0,0,1,.137.261A2.113,2.113,0,0,1,324.711,120.6Z" transform="translate(-323.882 -120.047)" fill="#231f20"/>
          </g>
          <g id="Group_277" data-name="Group 277" transform="translate(29.771 63.877)">
            <path id="Path_613" data-name="Path 613" d="M324.672,121.443a.929.929,0,0,1-.806-.324.147.147,0,1,1,.247-.159c.162.254.878.25,1.367-.007a.147.147,0,1,1,.137.261A2.108,2.108,0,0,1,324.672,121.443Z" transform="translate(-323.843 -120.893)" fill="#231f20"/>
          </g>
          <g id="Group_278" data-name="Group 278" transform="translate(29.749 64.364)">
            <path id="Path_614" data-name="Path 614" d="M324.732,122.329a1.043,1.043,0,0,1-.906-.366.147.147,0,0,1,.25-.155c.168.27.875.309,1.376.075a.147.147,0,0,1,.124.266A2.057,2.057,0,0,1,324.732,122.329Z" transform="translate(-323.804 -121.738)" fill="#231f20"/>
          </g>
          <g id="Group_279" data-name="Group 279" transform="translate(29.726 64.853)">
            <path id="Path_615" data-name="Path 615" d="M324.677,123.169a1.025,1.025,0,0,1-.89-.359.147.147,0,1,1,.25-.155c.164.264.857.3,1.348.07a.147.147,0,1,1,.125.266A2.022,2.022,0,0,1,324.677,123.169Z" transform="translate(-323.765 -122.585)" fill="#231f20"/>
          </g>
          <g id="Group_280" data-name="Group 280" transform="translate(29.704 65.34)">
            <path id="Path_616" data-name="Path 616" d="M324.68,124.032a1.075,1.075,0,0,1-.932-.378A.147.147,0,0,1,324,123.5c.162.266.85.321,1.338.107a.147.147,0,0,1,.118.269A1.978,1.978,0,0,1,324.68,124.032Z" transform="translate(-323.726 -123.43)" fill="#231f20"/>
          </g>
          <g id="Group_281" data-name="Group 281" transform="translate(29.549 65.735)">
            <path id="Path_617" data-name="Path 617" d="M324.606,124.812a1.32,1.32,0,0,1-1.129-.476.147.147,0,0,1,.255-.146,1.274,1.274,0,0,0,1.271.275.147.147,0,0,1,.086.281A1.688,1.688,0,0,1,324.606,124.812Z" transform="translate(-323.458 -124.115)" fill="#231f20"/>
          </g>
          <g id="Group_282" data-name="Group 282" transform="translate(29.344 66.157)">
            <path id="Path_618" data-name="Path 618" d="M324.547,125.714a1.718,1.718,0,0,1-1.428-.65.147.147,0,0,1,.259-.14,1.536,1.536,0,0,0,1.38.48.147.147,0,0,1,.05.29A1.563,1.563,0,0,1,324.547,125.714Z" transform="translate(-323.101 -124.847)" fill="#231f20"/>
          </g>
          <g id="Group_283" data-name="Group 283" transform="translate(29.09 66.623)">
            <path id="Path_619" data-name="Path 619" d="M324.174,126.6a1.847,1.847,0,0,1-1.5-.733.146.146,0,0,1,.062-.2.148.148,0,0,1,.2.062,1.594,1.594,0,0,0,1.32.571.15.15,0,0,1,.159.134.147.147,0,0,1-.134.159C324.249,126.6,324.211,126.6,324.174,126.6Z" transform="translate(-322.662 -125.656)" fill="#231f20"/>
          </g>
          <path id="Path_620" data-name="Path 620" d="M321.078,129.753c-.3.035-.533.152-.521.262s.266.171.567.137.533-.152.52-.262S321.379,129.718,321.078,129.753Z" transform="translate(-292.68 -60.763)" fill="#866c8a" fill-rule="evenodd"/>
          <g id="Group_284" data-name="Group 284" transform="translate(28.761 66.935)">
            <path id="Path_621" data-name="Path 621" d="M323.569,127.249h0a1.8,1.8,0,0,1-1.466-.852.147.147,0,0,1,.273-.11,1.53,1.53,0,0,0,1.2.667.147.147,0,0,1,0,.294Z" transform="translate(-322.091 -126.196)" fill="#231f20"/>
          </g>
          <path id="Path_622" data-name="Path 622" d="M333.612,73.324c-.221-.306-1.382-.479-1.357.047-.073.454-.337,2.209-.331,2.335a4.181,4.181,0,0,0,.055.559.949.949,0,0,0,.316.623c.161.2.608.773.768.936a6.8,6.8,0,0,0,1.033.834.38.38,0,0,0,.141-.292c.129.072.321.25.384.167a.442.442,0,0,0-.022-.5l.127.109a.487.487,0,0,0,.084-.612c-.073-.146-.4-.571-.484-.718-.191-.358-.638-1.179-.121-.375.22.353.612.8.69.583.134-.375-.2-.509-.384-.884a4.55,4.55,0,0,1-.423-1.5A1.5,1.5,0,0,0,333.612,73.324Z" transform="translate(-297.493 -36.754)" fill="#f2b387" fill-rule="evenodd"/>
          <path id="Path_623" data-name="Path 623" d="M322.289,31c.654,1.808-.761,2.327-1,4.707-.59,5.757-14.5,4.479-7.96-6.771C313.821,28.081,319.379,28.16,322.289,31Z" transform="translate(-288.879 -17.883)" fill="#b9b9b9" fill-rule="evenodd"/>
          <path id="Path_624" data-name="Path 624" d="M304.659,31.386c2.195,1.451-.714,5.4-2.625,6.571a16.112,16.112,0,0,1-7.026,4.64c-2.606.657-2.925-3.334-1.274-4.837a44.423,44.423,0,0,0,4.109-4.749C298.782,31.736,302.649,29.44,304.659,31.386Z" transform="translate(-280.895 -18.804)" fill="#535353" fill-rule="evenodd"/>
          <path id="Path_625" data-name="Path 625" d="M286.632,45.609a51.009,51.009,0,0,1-5.2-3.3c-.367-1.38.882-3.548,1.575-3.176a53.912,53.912,0,0,0,5.92,2.206,3.544,3.544,0,0,1,1.537,4.239C290.169,45.945,289.7,47.305,286.632,45.609Z" transform="translate(-276.089 -22.385)" fill="#4a4a4a" fill-rule="evenodd"/>
          <path id="Path_626" data-name="Path 626" d="M313.232,69.941c-.528,1.614-.186,3.17-.589,4.817-.649,2.045-2.045,4.832-1.806,7.278.432,4.425-1.073,2.943-.98,6.832-.116,1.027-.931.348-1.334.864-.724.927-2.279,1.033-2.654.325-.253-.479-1.051-.991-.815-1.587a60.335,60.335,0,0,0,.118-8.016c0-5.174-.313-11.2,1.237-16.1a15.514,15.514,0,0,0,5.141,2.12C311.567,67.058,313.309,69.707,313.232,69.941Z" transform="translate(-286.099 -33.08)" fill="#939393" fill-rule="evenodd"/>
          <path id="Path_627" data-name="Path 627" d="M320.152,84.816c.016.191.181.745.2.93a12.738,12.738,0,0,1,1.368,5.607c.132,1.367.36,2.354.423,3.424.092,1.566-.8.984-1.068,1.685-.241.637-.732,2.195-2.812.578a1.512,1.512,0,0,1-.88-.666c-.326-.437-.659-4.044-1.849-7.3-.08-.216-.8-1.6-.87-1.823-1.293-4.313-2.311-6.412-2.787-13.835-2.42-.374-1.173-3.9-1.312-7.06,4.061,2.713,7.107,1.646,8.108.864,1.353,2.151,1.805,6.148,1.026,6.649.383,3.744-.057,7.493.287,10.245C320.083,84.276,320.064,84.645,320.152,84.816Z" transform="translate(-288.367 -33.927)" fill="#7e7e7e" fill-rule="evenodd"/>
          <path id="Path_628" data-name="Path 628" d="M320.1,43.281c0,1.664,1.087,4.357,2.826,3.294,1.276-.778,2.676-4.1,2.1-5.513-.25-.614-.906-1.9-1.586-2.109C320.719,38.132,320.1,41.057,320.1,43.281Z" transform="translate(-292.489 -22.266)" fill="#db9669" fill-rule="evenodd"/>
          <path id="Path_629" data-name="Path 629" d="M313.766,32.529a13.283,13.283,0,0,1,4.335,2.943c.868.984.027,3.21.014,3.515-.213,3.562-1.34,6.851-1.547,9-.116,1.54.8,4.341,1,11.976-2.813,4.508-11.856.87-15.183-1.355,1.722-4.515.263-19.367,2.568-25.75C305.445,31.484,312.4,34.115,313.766,32.529Z" transform="translate(-284.985 -19.571)" fill="#4d4d4d" fill-rule="evenodd"/>
          <path id="Path_630" data-name="Path 630" d="M323.952,37.7c2.564-1.957,4.709,1.544,5.629,3.24a20.986,20.986,0,0,1,2.593,7.906c.1,2.309-3.372,2.061-4.352.411-1.235-1.458-3.595-4.687-4.139-5.291C322.77,42.955,321.771,39.365,323.952,37.7Z" transform="translate(-293.563 -21.551)" fill="#535353" fill-rule="evenodd"/>
          <path id="Path_631" data-name="Path 631" d="M310.557,34.944c.076,1.151-1.63-2.351-1.3-3.836C310.736,24.333,310.452,33.35,310.557,34.944Z" transform="translate(-287.877 -17.95)" fill="#b4b4b4" fill-rule="evenodd"/>
          <path id="Path_632" data-name="Path 632" d="M319.139,68.285a25.356,25.356,0,0,1-7.029-1.582l-.008,2.49a19.65,19.65,0,0,0,7.2,1.49Z" transform="translate(-289.101 -34.074)" fill="#afaead" fill-rule="evenodd"/>
          <path id="Path_633" data-name="Path 633" d="M335.9,55.742c.594,2.916-.8,8.223-1.052,9.5-.689.558-3.434.178-3.371-.605-.07-.812.484-5.714.084-8.236a3,3,0,0,1,2.567-1.431C334.577,55.1,335.138,52.274,335.9,55.742Z" transform="translate(-297.299 -28.699)" fill="#4a4a4a" fill-rule="evenodd"/>
          <path id="Path_634" data-name="Path 634" d="M303.612,64.593a2.624,2.624,0,0,0,1.453.58,8.92,8.92,0,0,0-.548,2.2c-.375.006-1.234-.662-1.431-.65C303.37,66.043,303.139,65.555,303.612,64.593Z" transform="translate(-285.284 -33.181)" fill="#afaead" fill-rule="evenodd"/>
          <path id="Path_635" data-name="Path 635" d="M334.645,72.665a3.2,3.2,0,0,1-.1.872,4.168,4.168,0,0,0-2.3-.378q.03-.452.06-.9C332.991,71.659,333.832,71.809,334.645,72.665Z" transform="translate(-297.627 -36.273)" fill="#4f4425" fill-rule="evenodd"/>
          <path id="Path_636" data-name="Path 636" d="M281.306,41.858a2.494,2.494,0,0,1-.7-.442,2.079,2.079,0,0,1,1.466-2.226l.614.444A2.1,2.1,0,0,1,281.306,41.858Z" transform="translate(-275.765 -22.426)" fill="#4f4425" fill-rule="evenodd"/>
          <path id="Path_637" data-name="Path 637" d="M318.291,32.282a15.981,15.981,0,0,0-7.859-1.634,21.24,21.24,0,0,0,.587,5.383c.17.208.213.415.612.423A19.148,19.148,0,0,1,318.291,32.282Z" transform="translate(-288.394 -18.809)" fill="#e6e7e8" fill-rule="evenodd"/>
          <path id="Path_638" data-name="Path 638" d="M316.194,26.652l.78,3.5c.511,1.029-4.391,3.3-5.257,1.627l1.011-4.015Z" transform="translate(-288.938 -17.118)" fill="#d39064" fill-rule="evenodd"/>
          <path id="Path_639" data-name="Path 639" d="M308.793,17.965a7.41,7.41,0,0,1-.384,1.737c-.279.655.552.885-.1,1.8a7.136,7.136,0,0,0,.182,2.429,2.212,2.212,0,0,0,.871,1.736c1.135.826,2.412-.269,3.6-.634s.726-1.833,1.129-2.786c.723-1.719.736-4.1-1.159-4.935a5.071,5.071,0,0,0-3.151-.3C309.47,17.123,308.785,17.352,308.793,17.965Z" transform="translate(-287.478 -12.98)" fill="#f2b387" fill-rule="evenodd"/>
          <path id="Path_640" data-name="Path 640" d="M315.278,21.187c.321.172.4.209.482.639.069.363.328.4.232,1.128.008.174,1.232-.356,1.578.976,1.5-1.236,1.947-5.012.9-6-2.158.069-2.91.056-3.779,1.219A2.317,2.317,0,0,0,315.278,21.187Z" transform="translate(-290.173 -13.426)" fill="#4f2b0c" fill-rule="evenodd"/>
          <path id="Path_641" data-name="Path 641" d="M318.8,25.218c-.27.62-.71,1.025-.981.905s-.345-.762-.074-1.38.78-.976,1.051-.856S319.07,24.6,318.8,25.218Z" transform="translate(-291.418 -15.938)" fill="#f2b387" fill-rule="evenodd"/>
          <path id="Path_642" data-name="Path 642" d="M308.98,26.884a3.759,3.759,0,0,1,1.545,1.184c.477.754,1.384.115,1.906-.648a3.768,3.768,0,0,0,.521-1.481l.39-.236a5.07,5.07,0,0,1,.222,2.456,3.442,3.442,0,0,1-4.585,3.315V28.112c.156.146.338.37.368.389.322.215.524-.088.228-.306-.264-.194-.372-.283-.6-.452Zm-.988.18a.5.5,0,0,1,.644-.3,1.812,1.812,0,0,1,.344.119v.86l-.246-.184c-.477.106-.675.359-.291.524a.5.5,0,0,0,.13.041c.078.01.11-.035.186-.124.034-.041.122.02.221.112v3.362a3.506,3.506,0,0,1-.452-.2,2.1,2.1,0,0,1-1.117-1.89V29.1A4.684,4.684,0,0,1,307.992,27.063Z" transform="translate(-287.115 -16.716)" fill="#4f2b0c" fill-rule="evenodd"/>
          <path id="Path_643" data-name="Path 643" d="M312.4,37.247c.968-.027,2.835-3.79,8.63-2.935,1.842.272,3.063-1.362,1.486-1.725C316.976,31.314,311.62,37.268,312.4,37.247Z" transform="translate(-289.195 -19.555)" fill="#d1d1d0" fill-rule="evenodd"/>
          <path id="Path_644" data-name="Path 644" d="M322.812,71.228c-.191.01-.335.239-.321.51s.181.484.372.474.334-.239.32-.51S323,71.217,322.812,71.228Z" transform="translate(-293.499 -35.99)" fill="#4f4425" fill-rule="evenodd"/>
          <path id="Path_645" data-name="Path 645" d="M313.353,69.3c-.191.01-.334.239-.32.511s.181.484.372.473.335-.239.32-.51S313.545,69.286,313.353,69.3Z" transform="translate(-289.495 -35.172)" fill="#4f4425" fill-rule="evenodd"/>
          <path id="Path_646" data-name="Path 646" d="M305.061,66.842c-.1-.011-.216.2-.268.464s-.018.492.078.5.215-.2.268-.464S305.156,66.853,305.061,66.842Z" transform="translate(-285.996 -34.133)" fill="#4f4425" fill-rule="evenodd"/>
          <path id="Path_647" data-name="Path 647" d="M313.262,47.622a26.033,26.033,0,0,1-7.037-1.487l.11,5.025a17.39,17.39,0,0,0,6.868,1.493Z" transform="translate(-286.613 -25.366)" fill="#d8d7d4" fill-rule="evenodd"/>
          <path id="Path_648" data-name="Path 648" d="M313.294,45.406a23.64,23.64,0,0,1-6.8-1.487l-.237,2.395a15.693,15.693,0,0,0,6.629,1.495Z" transform="translate(-286.626 -24.428)" fill="#afaead" fill-rule="evenodd"/>
          <path id="Path_649" data-name="Path 649" d="M315.943,49.225c.191,0,.347-.221.347-.493s-.156-.493-.347-.493-.347.221-.347.493S315.752,49.225,315.943,49.225Z" transform="translate(-290.58 -26.257)" fill="#4f4425" fill-rule="evenodd"/>
          <path id="Path_650" data-name="Path 650" d="M307.339,47.357c.191,0,.347-.221.347-.493s-.155-.493-.347-.493-.347.221-.347.493S307.148,47.357,307.339,47.357Z" transform="translate(-286.937 -25.466)" fill="#4f4425" fill-rule="evenodd"/>
          <path id="Path_651" data-name="Path 651" d="M308.485,119.093l-.811-.54.8.016Z" transform="translate(-287.226 -56.026)" fill="#231f20" fill-rule="evenodd"/>
          <path id="Path_652" data-name="Path 652" d="M305.91,111.823s-.542,2.451.535,2.015c.458-.185.345.754.292,1.089a3.676,3.676,0,0,1-1.831,1.06c-.043-.146.012-.337-.064-.3-.53.24-.672.86-1.252,1.322a4.049,4.049,0,0,1-3.64.367c-.654-.307-.882-.555-.628-1.224a13.948,13.948,0,0,1,2.38-1.38,4.4,4.4,0,0,0,1.965-2.293c.123-.308.52-1.244.52-1.244S304.765,111.059,305.91,111.823Z" transform="translate(-283.648 -52.919)" fill="#414042" fill-rule="evenodd"/>
          <path id="Path_653" data-name="Path 653" d="M306.058,111.823a3.542,3.542,0,0,1,.687,2.471c-.067.329-.958.97-1.7,1.169-.944.252-.887.642-1.343,1.006a3.331,3.331,0,0,1-3.956.153c-.318-.289-.129-.795.051-1.026a7.386,7.386,0,0,1,2.056-1.153,3.275,3.275,0,0,0,1.76-2.733c.123-.307.724-.476.724-.476S304.913,111.059,306.058,111.823Z" transform="translate(-283.796 -52.919)" fill="#808285" fill-rule="evenodd"/>
          <path id="Path_654" data-name="Path 654" d="M306.5,110.509a3.761,3.761,0,0,1,.243,2.194c-.067.329-.958.97-1.7,1.169-.944.252-.887.642-1.343,1.006a3.331,3.331,0,0,1-3.956.153c-.318-.289-.129-.8.051-1.026a7.355,7.355,0,0,1,2.056-1.152c1.679-.76,1.793-3.039,1.716-4.355a2.259,2.259,0,0,0,2.914-.585A6.434,6.434,0,0,0,306.5,110.509Z" transform="translate(-283.796 -51.521)" fill="#3c3939" fill-rule="evenodd"/>
          <g id="Group_285" data-name="Group 285" transform="translate(19.639 57.252)">
            <path id="Path_655" data-name="Path 655" d="M307.18,109.993a.992.992,0,0,1-.889-.369.147.147,0,1,1,.256-.145c.148.262.862.3,1.365.066a.147.147,0,0,1,.123.268A2.117,2.117,0,0,1,307.18,109.993Z" transform="translate(-306.272 -109.403)" fill="#231f20"/>
          </g>
          <g id="Group_286" data-name="Group 286" transform="translate(19.591 57.737)">
            <path id="Path_656" data-name="Path 656" d="M307.1,110.836a.992.992,0,0,1-.89-.37.147.147,0,1,1,.256-.144c.148.262.863.3,1.365.066a.147.147,0,0,1,.123.268A2.1,2.1,0,0,1,307.1,110.836Z" transform="translate(-306.188 -110.246)" fill="#231f20"/>
          </g>
          <g id="Group_287" data-name="Group 287" transform="translate(19.542 58.224)">
            <path id="Path_657" data-name="Path 657" d="M307.116,111.724a1.113,1.113,0,0,1-.995-.417.147.147,0,0,1,.258-.141c.153.279.856.356,1.37.148a.147.147,0,1,1,.11.273A2.048,2.048,0,0,1,307.116,111.724Z" transform="translate(-306.104 -111.089)" fill="#231f20"/>
          </g>
          <g id="Group_288" data-name="Group 288" transform="translate(19.494 58.71)">
            <path id="Path_658" data-name="Path 658" d="M307.014,112.56a1.092,1.092,0,0,1-.977-.409.147.147,0,0,1,.258-.141c.149.272.84.345,1.343.142a.146.146,0,0,1,.191.081.148.148,0,0,1-.081.191A2,2,0,0,1,307.014,112.56Z" transform="translate(-306.019 -111.933)" fill="#231f20"/>
          </g>
          <g id="Group_289" data-name="Group 289" transform="translate(19.445 59.196)">
            <path id="Path_659" data-name="Path 659" d="M306.973,113.423a1.144,1.144,0,0,1-1.02-.431.147.147,0,1,1,.259-.14c.148.275.832.367,1.33.179a.147.147,0,1,1,.1.276A1.937,1.937,0,0,1,306.973,113.423Z" transform="translate(-305.935 -112.775)" fill="#231f20"/>
          </g>
          <g id="Group_290" data-name="Group 290" transform="translate(19.27 59.582)">
            <path id="Path_660" data-name="Path 660" d="M306.853,114.2a1.38,1.38,0,0,1-1.206-.539.147.147,0,0,1,.263-.133,1.28,1.28,0,0,0,1.255.343.147.147,0,0,1,.07.285A1.6,1.6,0,0,1,306.853,114.2Z" transform="translate(-305.631 -113.445)" fill="#231f20"/>
          </g>
          <g id="Group_291" data-name="Group 291" transform="translate(19.041 59.992)">
            <path id="Path_661" data-name="Path 661" d="M306.733,115.094a1.754,1.754,0,0,1-1.484-.728.147.147,0,0,1,.266-.126,1.532,1.532,0,0,0,1.352.552.149.149,0,0,1,.163.129.147.147,0,0,1-.129.164A1.6,1.6,0,0,1,306.733,115.094Z" transform="translate(-305.235 -114.156)" fill="#231f20"/>
          </g>
          <g id="Group_292" data-name="Group 292" transform="translate(18.764 60.444)">
            <path id="Path_662" data-name="Path 662" d="M306.294,115.961a1.86,1.86,0,0,1-1.526-.814.147.147,0,0,1,.268-.122,1.587,1.587,0,0,0,1.288.641.159.159,0,0,1,.151.142.147.147,0,0,1-.142.152Z" transform="translate(-304.754 -114.939)" fill="#231f20"/>
          </g>
          <path id="Path_663" data-name="Path 663" d="M302.958,118.959c-.3.018-.541.123-.535.234s.257.186.559.167.541-.123.533-.234S303.259,118.94,302.958,118.959Z" transform="translate(-285.003 -56.196)" fill="#866c8a" fill-rule="evenodd"/>
          <g id="Group_293" data-name="Group 293" transform="translate(18.418 60.738)">
            <path id="Path_664" data-name="Path 664" d="M305.591,116.573h-.011a1.8,1.8,0,0,1-1.418-.929.147.147,0,1,1,.279-.095,1.532,1.532,0,0,0,1.16.73.147.147,0,0,1-.01.294Z" transform="translate(-304.154 -115.449)" fill="#231f20"/>
          </g>
          <g id="Group_294" data-name="Group 294" transform="translate(19.069)">
            <path id="Path_665" data-name="Path 665" d="M321.5,24.735l-.037.095C321.479,24.8,321.491,24.766,321.5,24.735Z" transform="translate(-312.134 -16.307)" fill="#221f1f" fill-rule="evenodd"/>
            <path id="Path_666" data-name="Path 666" d="M312.03,15.06c-3.108.431-4.739,1.582-3.543,2.728.407.389,1.454.691,3.386.364.683-.938,1.44-1.379,3.823-1.455C315.185,14.919,312.84,14.948,312.03,15.06Z" transform="translate(-306.473 -12.192)" fill="#4f2b0c" fill-rule="evenodd"/>
            <path id="Path_667" data-name="Path 667" d="M310.656,16.03a10.527,10.527,0,0,0-3.106,1.1c-1.1.634-2.3,1.935-2.266,2.757.026.633,2.5,1.879,3.239,1.773a33.878,33.878,0,0,0,4.62-1.346c1.906-.81,3.622-1.994,3.143-2.727C315.685,16.67,313.509,15.448,310.656,16.03Z" transform="translate(-305.283 -12.557)" fill="#bfbfbf" fill-rule="evenodd"/>
            <path id="Path_668" data-name="Path 668" d="M310.656,15.686a10.56,10.56,0,0,0-3.106,1.1c-1.1.634-2.3,1.935-2.266,2.757.026.633,2.5,1.879,3.239,1.773a33.961,33.961,0,0,0,4.62-1.346c1.906-.81,3.622-1.994,3.143-2.727C315.685,16.326,313.509,15.1,310.656,15.686Z" transform="translate(-305.283 -12.412)" fill="#ddd" fill-rule="evenodd"/>
            <path id="Path_669" data-name="Path 669" d="M305.483,22.469c.024.6,2.384,1.794,3.094,1.694a32.446,32.446,0,0,0,4.413-1.285C310.4,23.761,307.144,23.973,305.483,22.469Z" transform="translate(-305.368 -15.347)" fill-rule="evenodd" fill="url(#linear-gradient)"/>
            <path id="Path_670" data-name="Path 670" d="M307.613,15.917c-.032-2.531.942-5.328,4.14-5.543,3.647-.22,4.772,2.264,5.111,5C315.862,17.9,308.363,18.437,307.613,15.917Z" transform="translate(-306.269 -10.221)" fill="#d1d1d1" fill-rule="evenodd"/>
            <path id="Path_671" data-name="Path 671" d="M307.613,15.915c-.032-2.531.942-5.328,4.14-5.543a4.168,4.168,0,0,1,4.64,2.93c-.174,2.356-2.5,4.22-5.335,4.22a6.24,6.24,0,0,1-1.738-.244A2.388,2.388,0,0,1,307.613,15.915Z" transform="translate(-306.269 -10.219)" fill="#acacac" fill-rule="evenodd"/>
            <path id="Path_672" data-name="Path 672" d="M307.613,15.915c-.032-2.531.942-5.328,4.14-5.543a4.464,4.464,0,0,1,3.283.892,3.838,3.838,0,0,1,.127.983c0,2.488-2.394,4.505-5.346,4.505a6.21,6.21,0,0,1-1.894-.292A1.46,1.46,0,0,1,307.613,15.915Z" transform="translate(-306.269 -10.219)" fill="#b5b5b5" fill-rule="evenodd"/>
            <path id="Path_673" data-name="Path 673" d="M309.366,13.264a3.145,3.145,0,0,1,3.6-2.63c.979.116,1.919.37,1.679,1.506a4,4,0,0,1-4.069,2.224C310.1,14.276,309.3,13.8,309.366,13.264Z" transform="translate(-307.01 -10.325)" fill-rule="evenodd" fill="url(#linear-gradient-2)"/>
            <path id="Path_674" data-name="Path 674" d="M315.87,11.135c-2.5-1.013-5.269,2.809-5.607,5.861-.277-.108-.836-.242-.915-.281-.122-2.516.489-5.534,2.77-6.406A3.852,3.852,0,0,1,315.87,11.135Z" transform="translate(-306.997 -10.118)" fill="#434140" fill-rule="evenodd"/>
            <path id="Path_675" data-name="Path 675" d="M316.8,11.958a2.722,2.722,0,0,0-.275-.39c-2.822-2-5.6,3.548-5.639,5.848l.065.025C312.143,12.442,315.289,10.447,316.8,11.958Z" transform="translate(-307.656 -10.551)" fill="#adaaa9" fill-rule="evenodd"/>
            <path id="Path_676" data-name="Path 676" d="M310.346,21.443a1.612,1.612,0,0,1-1.2.682,1.032,1.032,0,0,1-1.143-.59l1.459-1.777A2.056,2.056,0,0,1,310.346,21.443Z" transform="translate(-306.434 -14.2)" fill="#e6e6e6" fill-rule="evenodd"/>
            <path id="Path_677" data-name="Path 677" d="M307.524,18.76a5.759,5.759,0,0,0,.018-.653.816.816,0,0,1,.074-.33l-.02.236c1.116,2.266,8.116,1.683,9.064-.8l-.031-.141c0,.032.074.026.081.186.009.2.1.493.114.618C316.413,20.423,308.278,21.28,307.524,18.76Z" transform="translate(-306.232 -13.064)" fill="#939598" fill-rule="evenodd"/>
            <path id="Path_678" data-name="Path 678" d="M307.524,18.9c0-.157.008-.43.018-.647,1.153,2.267,8.289,1.671,9.169-.844.037.195.1.487.113.611C316.413,20.565,308.277,21.421,307.524,18.9Z" transform="translate(-306.231 -13.205)" fill="#58595b" fill-rule="evenodd"/>
            <path id="Path_679" data-name="Path 679" d="M309.463,20.641a5.626,5.626,0,0,0,1.1.287,1.894,1.894,0,0,1,.2.794,4.915,4.915,0,0,1-1.771-.507Z" transform="translate(-306.853 -14.573)" fill="#383431" fill-rule="evenodd"/>
            <path id="Path_680" data-name="Path 680" d="M308.456,19.15c1.1-.235,1.763,1.66,1.209,2.121L309,21.7l-1.191-2.143Z" transform="translate(-306.353 -13.934)" fill="#58595b" fill-rule="evenodd"/>
            <path id="Path_681" data-name="Path 681" d="M313.1,10.33c-1.848.4-2.77,1.848-3.159,3.805.236.122.076.035.313.157a5.923,5.923,0,0,1,4.581-3.715A3.335,3.335,0,0,0,313.1,10.33Z" transform="translate(-307.254 -10.193)" fill-rule="evenodd" fill="url(#linear-gradient-3)"/>
            <path id="Path_682" data-name="Path 682" d="M308.508,19.254a.927.927,0,0,1,.905.352l-.694.434-.034,1.025-.792-1.424Z" transform="translate(-306.388 -13.978)" fill="#939598" fill-rule="evenodd"/>
            <path id="Path_683" data-name="Path 683" d="M308.292,19.821c-.473-.273-.884-.024-.919.555a1.807,1.807,0,0,0,.794,1.543c.473.272.885.024.92-.555A1.806,1.806,0,0,0,308.292,19.821Z" transform="translate(-306.167 -14.179)" fill="#414042" fill-rule="evenodd"/>
            <path id="Path_684" data-name="Path 684" d="M308.393,20.155c-.39-.224-.729-.02-.757.457a1.487,1.487,0,0,0,.655,1.271c.389.224.729.02.757-.457A1.488,1.488,0,0,0,308.393,20.155Z" transform="translate(-306.278 -14.329)" fill="#849daa" fill-rule="evenodd"/>
            <path id="Path_685" data-name="Path 685" d="M308.47,20.155a.49.49,0,0,0-.527-.026.7.7,0,0,0-.125.383,1.489,1.489,0,0,0,.655,1.271.492.492,0,0,0,.528.027.708.708,0,0,0,.125-.384A1.488,1.488,0,0,0,308.47,20.155Z" transform="translate(-306.355 -14.329)" fill="#cedee4" fill-rule="evenodd"/>
            <path id="Path_686" data-name="Path 686" d="M307.941,20.135a.624.624,0,0,0-.111.342,1.614,1.614,0,0,0,.584,1.133c.2.115.358.122.469.024C309.358,21.216,308.531,19.746,307.941,20.135Z" transform="translate(-306.361 -14.332)" fill="#a5c3d2" fill-rule="evenodd"/>
            <path id="Path_687" data-name="Path 687" d="M308.281,20.25c-.037-.036-.126,0-.2.076s-.1.168-.063.2.126,0,.2-.076S308.319,20.285,308.281,20.25Z" transform="translate(-306.434 -14.402)" fill="#fff" fill-rule="evenodd"/>
            <path id="Path_688" data-name="Path 688" d="M310.086,21.625l.522-.313a.711.711,0,0,1-.057.174l-.465.279v-.14Zm0-.112.537-.322a1.176,1.176,0,0,0,0-.128l-.539.323v.127Zm0-.274v-.115l.51-.306c.007.035.013.07.017.1l-.528.316Zm0-.3.471-.282c-.008-.029-.017-.057-.027-.086l-.443.266v.1Zm0-.334v-.089l.335-.2.033.069-.368.221Zm0-.375v-.077l.17-.1.039.054Zm-.015,1.4.015-.009v.14l-.055.033a.915.915,0,0,0,.04-.164Zm.015-1.481v.077l-.334.2-.038-.054.372-.223Zm0,.363V20.6l-.175.1c-.011-.023-.022-.046-.033-.069l.208-.125Zm0,.321v.1l-.072.043c-.008-.028-.017-.057-.027-.085l.1-.06Zm0,.288v.115l-.014.009c0-.035-.01-.07-.017-.1l.032-.019Zm0,.261v.127l0,0c0-.042,0-.085,0-.127Z" transform="translate(-307.159 -14.323)" fill="#414042" fill-rule="evenodd"/>
            <path id="Path_689" data-name="Path 689" d="M310.08,21.6l.522-.313a.7.7,0,0,1-.057.174l-.465.279V21.6Zm0-.111.537-.322a1.169,1.169,0,0,0,0-.128l-.539.323v.127Zm0-.274V21.1l.51-.306q.01.053.017.1l-.527.317Zm0-.3.47-.281c-.008-.029-.017-.057-.027-.085l-.443.265v.1Zm0-.334v-.089l.334-.2c.012.023.023.046.034.069l-.368.22Zm0-.375v-.077l.169-.1.039.053Zm-.016,1.405.016-.01v.14l-.055.033a.974.974,0,0,0,.04-.164Zm.016-1.482V20.2l-.335.2q-.018-.028-.038-.054l.373-.223Zm0,.363v.089l-.175.1-.033-.069.209-.125Zm0,.321v.1l-.072.043c-.009-.029-.018-.057-.028-.085l.1-.059Zm0,.288v.115l-.014.009c-.005-.035-.01-.069-.018-.1l.032-.019Zm0,.261v.127l0,0c0-.042,0-.084,0-.128Z" transform="translate(-307.156 -14.312)" fill="#939598" fill-rule="evenodd"/>
          </g>
          <path id="Path_690" data-name="Path 690" d="M319.546,93.008a19.25,19.25,0,0,0-.493-6.853A7.11,7.11,0,0,0,323.5,84.44c.312,2.914.9,6.75-.186,7.359A7.691,7.691,0,0,1,319.546,93.008Z" transform="translate(-292.044 -41.583)" fill="#d8d7d4" fill-rule="evenodd"/>
          <path id="Path_691" data-name="Path 691" d="M319.887,86.452a9.567,9.567,0,0,0,4.076-1.657q.3.9.591,1.81a7.6,7.6,0,0,1-4.089,1.77A5.181,5.181,0,0,1,319.887,86.452Z" transform="translate(-292.397 -41.734)" fill="#afaead" fill-rule="evenodd"/>
          <path id="Path_692" data-name="Path 692" d="M321.495,88.71c.191-.009.359.2.375.477s-.126.5-.317.508-.359-.205-.375-.477S321.3,88.718,321.495,88.71Z" transform="translate(-292.943 -43.391)" fill="#4f4425" fill-rule="evenodd"/>
          <path id="Path_693" data-name="Path 693" d="M326.28,86.595c.189-.029.378.166.423.435s-.072.511-.261.54-.378-.166-.423-.435S326.09,86.624,326.28,86.595Z" transform="translate(-294.989 -42.494)" fill="#4f4425" fill-rule="evenodd"/>
          <g id="Group_295" data-name="Group 295" transform="translate(0 13.993)">
            <path id="Path_694" data-name="Path 694" d="M277.528,39.62c.406-.025,1.231-1.267.739-1.572-.572-.389-1.105-1.528-1.544-1.7-.2-.126-.7-.059-.91-.16a.95.95,0,0,0-.749-.081c-.272.035-1.055.112-1.3.167-.424.144-1.378.289-1.357.491a.443.443,0,0,0,.182.321c-.154.054-.42.056-.374.27a.466.466,0,0,0,.468.294l-.174.056c-.166.249.326.443.506.464s.754-.04.933-.025c.435.037,1.44.112.409.115-.447,0-1.081.1-.93.311.261.366.668.181,1.117.234a4.055,4.055,0,0,1,1.515.466A1.525,1.525,0,0,0,277.528,39.62Z" transform="translate(-272.214 -35.095)" fill="#db9669" fill-rule="evenodd"/>
            <path id="Path_695" data-name="Path 695" d="M278.141,36.826c-.391-.136-.422-.507-.575-.9-.174-.441-.991-.7-1.139-1.357-.076-.336.406-.185.789.157s.82.359,1.123.648c.179.172.75.813.607,1.124C278.7,37.043,278.47,36.859,278.141,36.826Z" transform="translate(-273.994 -34.385)" fill="#f2b387" fill-rule="evenodd"/>
          </g>
        </g>
        <g id="Group_297" data-name="Group 297" transform="translate(0 22.287)">
          <path id="Path_696" data-name="Path 696" d="M302.316,71.986a.341.341,0,0,1,.283-.439.464.464,0,0,1,.55.226c1.477,3.654,7.745,19.3,9.222,22.958a.54.54,0,0,1-.754.406Z" transform="translate(-283.61 -58.405)" fill="#bebebe"/>
          <path id="Path_697" data-name="Path 697" d="M286.62,71.986a.34.34,0,0,0-.282-.439.464.464,0,0,0-.549.226c-1.477,3.654-7.745,19.3-9.223,22.958a.541.541,0,0,0,.755.406Z" transform="translate(-272.718 -58.405)" fill="#bebebe"/>
          <path id="Path_698" data-name="Path 698" d="M299.907,73a.342.342,0,0,1,.283-.44.468.468,0,0,1,.55.226c1.477,3.654,7.745,19.3,9.222,22.958a.54.54,0,0,1-.754.407Z" transform="translate(-282.591 -58.834)" fill="#bebebe"/>
          <path id="Path_699" data-name="Path 699" d="M289.03,73a.341.341,0,0,0-.283-.44.466.466,0,0,0-.549.226c-1.477,3.654-7.745,19.3-9.222,22.958a.539.539,0,0,0,.754.407Z" transform="translate(-273.738 -58.834)" fill="#bebebe"/>
          <path id="Path_700" data-name="Path 700" d="M296.225,74.07c1.74,0,3.159-.918,3.159-2.044s-1.419-2.044-3.159-2.044-3.159.918-3.159,2.044S294.485,74.07,296.225,74.07Z" transform="translate(-279.703 -57.75)" fill="#58595b" fill-rule="evenodd"/>
          <path id="Path_701" data-name="Path 701" d="M313.329,102.945a.341.341,0,0,1,.283-.439.466.466,0,0,1,.55.226l4.43,10.964,2.289,6.8-3-6.287Z" transform="translate(-288.273 -71.512)" fill="#a79d97"/>
          <path id="Path_702" data-name="Path 702" d="M277.445,102.945a.341.341,0,0,0-.283-.439.467.467,0,0,0-.549.226l-4.43,10.964-2.289,6.8,3-6.287Z" transform="translate(-269.893 -71.512)" fill="#a79d97"/>
          <path id="Path_703" data-name="Path 703" d="M322.322,122.966l2.087,6.2-2.766-5.8Z" transform="translate(-291.802 -80.181)" fill="#6d6e71"/>
          <path id="Path_704" data-name="Path 704" d="M271.979,122.966l-2.087,6.2,2.767-5.8Z" transform="translate(-269.893 -80.181)" fill="#6d6e71"/>
          <path id="Path_705" data-name="Path 705" d="M296.929,111.875c0-.193.386-.349.861-.349s.862.157.862.349l.14,12.946L298.051,133l-.981-8.119Z" transform="translate(-281.339 -75.338)" fill="#414141"/>
          <path id="Path_706" data-name="Path 706" d="M298.887,137.059l-.611,6.746-.815-6.746Z" transform="translate(-281.564 -86.148)" fill="#6d6e71"/>
          <path id="Path_707" data-name="Path 707" d="M295.072,76.055a.447.447,0,0,1,.872,0l.132,26.114a.448.448,0,0,1-.873,0Z" transform="translate(-280.553 -60.173)" fill="#797979"/>
          <path id="Path_708" data-name="Path 708" d="M299.936,76.055a.447.447,0,0,1,.873,0l.132,26.114a.448.448,0,0,1-.874,0Z" transform="translate(-282.612 -60.173)" fill="#797979"/>
          <rect id="Rectangle_106" data-name="Rectangle 106" width="3.683" height="0.918" transform="translate(14.641 39.468)" fill="#6d6e71"/>
          <path id="Path_709" data-name="Path 709" d="M314.463,108.686l2.076-1.152.347.864-2.053,1.153Z" transform="translate(-288.762 -73.648)" fill="#6d6e71" fill-rule="evenodd"/>
          <path id="Path_710" data-name="Path 710" d="M280.091,108.686l-2.076-1.152-.347.864,2.053,1.153Z" transform="translate(-273.184 -73.648)" fill="#6d6e71" fill-rule="evenodd"/>
          <path id="Path_711" data-name="Path 711" d="M296.154,67.912c2.165.142,3.692,1.244,3.408,2.461s-2.27,2.087-4.435,1.946-3.692-1.244-3.408-2.461S293.988,67.769,296.154,67.912Z" transform="translate(-279.118 -56.867)" fill="#939598" fill-rule="evenodd"/>
          <path id="Path_712" data-name="Path 712" d="M296.154,67.059c2.165.142,3.692,1.244,3.408,2.461s-2.27,2.088-4.435,1.945S291.434,70.22,291.718,69,293.988,66.916,296.154,67.059Z" transform="translate(-279.118 -56.506)" fill="#58595b" fill-rule="evenodd"/>
          <path id="Path_713" data-name="Path 713" d="M295.988,66.012c2.316.153,3.948,1.331,3.645,2.631s-2.428,2.233-4.743,2.08-3.947-1.33-3.644-2.632S293.672,65.86,295.988,66.012Z" transform="translate(-278.917 -56.062)" fill="#ebe6e4" fill-rule="evenodd"/>
          <path id="Path_714" data-name="Path 714" d="M295.988,65.1c2.316.152,3.948,1.33,3.645,2.631s-2.428,2.232-4.743,2.08-3.947-1.33-3.644-2.632S293.672,64.948,295.988,65.1Z" transform="translate(-278.917 -55.676)" fill="#50504e" fill-rule="evenodd"/>
          <path id="Path_715" data-name="Path 715" d="M296.871,63.562l-4.8-2.74.521-2.757V50.815a9.63,9.63,0,0,1,4.8,2.74v7.224Z" transform="translate(-279.284 -49.635)" fill="#ebe9e8" fill-rule="evenodd"/>
          <path id="Path_716" data-name="Path 716" d="M300.392,64.7l2.632-1.43V53.5l-2.11,1.19v7.241Z" transform="translate(-282.805 -50.773)" fill="#afafaf" fill-rule="evenodd"/>
          <path id="Path_717" data-name="Path 717" d="M292.98,49.948a9.724,9.724,0,0,1,4.8,2.741l2.111-1.19a8.117,8.117,0,0,0-4.805-2.73Z" transform="translate(-279.667 -48.769)" fill="#d8d5d1" fill-rule="evenodd"/>
          <path id="Path_718" data-name="Path 718" d="M296.173,56.54c-.782-.45-1.463-.039-1.52.919a2.987,2.987,0,0,0,1.314,2.55c.783.45,1.463.039,1.52-.919A2.988,2.988,0,0,0,296.173,56.54Z" transform="translate(-280.374 -51.982)" fill="#bcbec0" fill-rule="evenodd"/>
          <path id="Path_719" data-name="Path 719" d="M295.959,56.662c-.782-.45-1.462-.039-1.519.919a2.986,2.986,0,0,0,1.313,2.55c.783.451,1.463.039,1.52-.918A2.986,2.986,0,0,0,295.959,56.662Z" transform="translate(-280.283 -52.033)" fill="#58595b" fill-rule="evenodd"/>
          <path id="Path_720" data-name="Path 720" d="M296.394,58.116c-.42-.242-.787-.021-.817.494a1.6,1.6,0,0,0,.706,1.37c.42.242.786.021.817-.493A1.606,1.606,0,0,0,296.394,58.116Z" transform="translate(-280.765 -52.685)" fill="#bcbec0" fill-rule="evenodd"/>
          <path id="Path_721" data-name="Path 721" d="M296.477,58.116a.528.528,0,0,0-.569-.028.756.756,0,0,0-.135.413,1.605,1.605,0,0,0,.707,1.371.528.528,0,0,0,.568.029.768.768,0,0,0,.135-.414A1.607,1.607,0,0,0,296.477,58.116Z" transform="translate(-280.849 -52.684)" fill="#cedee4" fill-rule="evenodd"/>
          <path id="Path_722" data-name="Path 722" d="M295.908,58.093a.67.67,0,0,0-.12.37,1.746,1.746,0,0,0,.629,1.222c.22.124.387.13.507.025C297.435,59.259,296.544,57.674,295.908,58.093Z" transform="translate(-280.855 -52.687)" fill="#849daa" fill-rule="evenodd"/>
          <path id="Path_723" data-name="Path 723" d="M296.853,68.877l-4.825-2.757.549-2.747,4.8,2.741Z" transform="translate(-279.264 -54.952)" fill="#91887d" fill-rule="evenodd"/>
          <path id="Path_724" data-name="Path 724" d="M296.88,68.776l-3.96-2.263.363-1.932,3.937,2.249Z" transform="translate(-279.642 -55.463)" fill="#b9aeab" fill-rule="evenodd"/>
          <path id="Path_725" data-name="Path 725" d="M297.035,68.7l-3.806-2.175.338-1.792,3.784,2.163Z" transform="translate(-279.772 -55.527)" fill="#fff" fill-rule="evenodd"/>
        </g>
      </g>
    </g>
    <g id="Group_1177" data-name="Group 1177" transform="translate(-3331.703 -1447.709)">
      <path id="Path_726" data-name="Path 726" d="M1381.943,2270.381a.682.682,0,0,1-.682-.682,20.37,20.37,0,0,1,1.843-8.852,15.967,15.967,0,0,1,4.081-5.309,16.724,16.724,0,0,1,4.077-2.546,11.861,11.861,0,0,1,1.9-.668.682.682,0,0,1,.307,1.33h0a10.836,10.836,0,0,0-1.711.613,15.307,15.307,0,0,0-3.733,2.352c-3.581,3.069-5.4,7.47-5.4,13.081A.682.682,0,0,1,1381.943,2270.381Z" transform="translate(-1244.553 -634.998)" fill="#e1deee"/>
      <path id="Path_727" data-name="Path 727" d="M2848.1,2270.381a.682.682,0,0,0,.682-.682,20.367,20.367,0,0,0-1.843-8.852,15.958,15.958,0,0,0-4.081-5.309,16.713,16.713,0,0,0-4.077-2.546,11.856,11.856,0,0,0-1.9-.668.682.682,0,0,0-.307,1.33h0a10.83,10.83,0,0,1,1.711.613,15.3,15.3,0,0,1,3.733,2.352c3.581,3.069,5.4,7.47,5.4,13.081A.682.682,0,0,0,2848.1,2270.381Z" transform="translate(-2674.559 -634.998)" fill="#e1deee"/>
      <path id="Path_729" data-name="Path 729" d="M1111.547,2100.967c1.261-.258,11.155-.764,11.155-.764.212-.053,7.907.106,8.332.053s8.013.266,8.013.266,3.184.318,3.661.371,10.339,1.218,11.666,1.271a14.824,14.824,0,0,0,2.884-.334c0,1.119-1.329,1.291-1.839,1.33a16.439,16.439,0,0,1-3.946-.168,72.642,72.642,0,0,0-7.443-.5,16.263,16.263,0,0,0-4.771-.252c-1.39.32-1.736.426-1.538.89-.54.119-2.4.531-2.7.59-.35.07-.931.308-1.015.308h-2.071a5.43,5.43,0,0,0-.476.867,1.471,1.471,0,0,1-.763.931v.53h-.019v-.923h-6.932v.389a1.469,1.469,0,0,1-.758-.928,5.435,5.435,0,0,0-.476-.867h-2.071c-.084,0-.665-.238-1.015-.308s-2.848-.623-2.848-.623-3.946-.189-4.716-.273-1.98-.658-3.009-.364a16.43,16.43,0,0,1-3.946.168c-.527-.042-1.928-.223-1.834-1.447C1104.3,2101.927,1110.4,2101.2,1111.547,2100.967Z" transform="translate(-971.098 -486.319)" fill="#e5e5e4"/>
      <path id="Path_730" data-name="Path 730" d="M1104.568,1763.844s4.107-.357,4.534-.385,2.533-.189,2.533-.189c.413-.147,8-1,8-1a6.667,6.667,0,0,1,2.925-1.735c1.077-2.05,1.833-2.2,1.833-2.2a3.6,3.6,0,0,0-1.015,1.665c-.049.413-.007.539,1.071.791s1.875,1.749,1.875,1.749a1.236,1.236,0,0,0,2.3,0s.8-1.5,1.875-1.749,1.12-.378,1.071-.791a3.6,3.6,0,0,0-1.015-1.665s.756.147,1.833,2.2a6.67,6.67,0,0,1,2.925,1.735s7.592.854,8,1c0,0,7.987.688,8.414.716s4.534.385,4.534.385,1.063-.077,1.231,1.225a1.567,1.567,0,0,1,.012.2,14.813,14.813,0,0,1-2.884.333c-1.327-.053-11.2-1.19-11.678-1.243s-3.669-.309-3.669-.309-7.569-.408-7.994-.355-8.119-.106-8.332-.053c0,0-9.895.506-11.155.764-1.147.235-7.248.96-8.475.219,0-.029,0-.057.008-.086C1103.505,1763.767,1104.568,1763.844,1104.568,1763.844Z" transform="translate(-971.356 -150.725)" fill="#fcfdff"/>
      <path id="Path_731" data-name="Path 731" d="M2222.655,2872.152c.088-.756-4.446-.685-4.446-.685s-3.356.193-3.831.264a.679.679,0,0,0-.58.369c0,.931-.369.651-.369.651l-.053,4.991h9.613v-4.973C2222.584,2872.731,2222.655,2872.152,2222.655,2872.152Z" transform="translate(-2062.493 -1243.609)" fill="#151314"/>
      <path id="Rectangle_107" data-name="Rectangle 107" d="M2.961,0H6.827A2.961,2.961,0,0,1,9.788,2.961v0A2.961,2.961,0,0,1,6.827,5.922H2.961A2.961,2.961,0,0,1,0,2.961v0A2.961,2.961,0,0,1,2.961,0Z" transform="translate(150.848 1628.63)" fill="#bdbac1"/>
      <path id="Path_732" data-name="Path 732" d="M2200.273,2780.232c-.035-.562-3.954-.545-3.954-.545a1.413,1.413,0,0,1-.51-.791l-.073-.008v-.168l-.71.084-.711-.084v.168l-.073.008a1.412,1.412,0,0,1-.51.791s-3.919-.018-3.954.545,0,6.994,0,6.994-.141,1.037.826,1.037h8.841c.967,0,.826-1.037.826-1.037S2200.308,2780.794,2200.273,2780.232Zm-.494,6.344h-9.612l-.053-4.955s.474.246.474-.685a.68.68,0,0,1,.58-.369c.475-.07,3.831-.263,3.831-.263s4.534-.07,4.446.685c0,0-.071.58.334.615Z" transform="translate(-2039.283 -1152.445)" fill="#e5e5e4"/>
      <path id="Path_733" data-name="Path 733" d="M3436.55,3208.555a1.859,1.859,0,1,0,1.857-1.778A1.819,1.819,0,0,0,3436.55,3208.555Z" transform="translate(-3264.83 -1573.21)" fill="#b3b3b4"/>
      <path id="Path_734" data-name="Path 734" d="M1328.312,3191.786a1.859,1.859,0,1,1-1.857-1.777A1.819,1.819,0,0,1,1328.312,3191.786Z" transform="translate(-1188.854 -1556.727)" fill="#b3b3b4"/>
      <path id="Path_735" data-name="Path 735" d="M791.546,2100.967c-1.261-.258-11.155-.764-11.155-.764-.212-.053-7.907.106-8.332.053s-8.013.266-8.013.266-3.184.318-3.662.371-10.339,1.218-11.666,1.271a14.827,14.827,0,0,1-2.884-.334c0,1.119,1.329,1.291,1.839,1.33a16.44,16.44,0,0,0,3.946-.168,72.636,72.636,0,0,1,7.443-.5,16.264,16.264,0,0,1,4.771-.252c1.39.32,1.736.426,1.538.89.54.119,2.4.531,2.7.59.35.07.93.308,1.014.308h2.071a5.426,5.426,0,0,1,.476.867,1.471,1.471,0,0,0,.763.931v.53h.019v-.923h6.932v.389a1.471,1.471,0,0,0,.758-.928,5.434,5.434,0,0,1,.476-.867h2.071c.084,0,.665-.238,1.014-.308s2.848-.623,2.848-.623,3.946-.189,4.716-.273,1.98-.658,3.009-.364a16.429,16.429,0,0,0,3.946.168c.527-.042,2.6.651,2.506-.572C799.466,2102.8,792.693,2101.2,791.546,2100.967Z" transform="translate(-619.951 -486.319)" fill="#e5e5e4"/>
      <path id="Path_736" data-name="Path 736" d="M798.782,1763.844s-4.107-.357-4.534-.385-2.533-.189-2.533-.189c-.413-.147-8-1-8-1a6.667,6.667,0,0,0-2.925-1.735c-1.078-2.05-1.833-2.2-1.833-2.2a3.6,3.6,0,0,1,1.015,1.665c.049.413.007.539-1.071.791s-1.875,1.749-1.875,1.749-.3-1.115-1.15-1.036c-.851-.08-1.15,1.036-1.15,1.036s-.8-1.5-1.875-1.749-1.12-.378-1.071-.791a3.6,3.6,0,0,1,1.015-1.665s-.756.147-1.833,2.2a6.668,6.668,0,0,0-2.925,1.735s-7.592.854-8,1c0,0-7.987.688-8.414.716s-4.534.385-4.534.385-1.064-.077-1.231,1.225a1.557,1.557,0,0,0-.013.2,14.818,14.818,0,0,0,2.884.333c1.327-.053,11.2-1.19,11.678-1.243s3.669-.309,3.669-.309,7.569-.408,7.994-.355,8.12-.106,8.332-.053c0,0,9.894.506,11.155.764,1.147.235,7.248.96,8.475.219,0-.029,0-.057-.008-.086C799.846,1763.767,798.782,1763.844,798.782,1763.844Z" transform="translate(-619.951 -150.725)" fill="#727272"/>
      <path id="Path_737" data-name="Path 737" d="M2305.2,2408.15v.923h-.018v2.7a1.886,1.886,0,0,0,.49.469s-.021.868.287.868v1.071s.028.244.6.321a2.849,2.849,0,0,0,.858.322v.008h2.472v-.008a2.852,2.852,0,0,0,.859-.322c.573-.077.6-.321.6-.321v-1.071c.308,0,.287-.868.287-.868a1.888,1.888,0,0,0,.49-.469v-3.232l.005,0v-.389Z" transform="translate(-2152.734 -788.743)" fill="#dedbdc"/>
      <path id="Path_738" data-name="Path 738" d="M1527.136,2214.609a16.238,16.238,0,0,0-4.771.252c.542.118,1.053.289,1.447.333.77.084,4.716.273,4.716.273l.146.032C1528.872,2215.035,1528.526,2214.93,1527.136,2214.609Z" transform="translate(-1383.253 -598.676)" fill="#9b9597"/>
      <path id="Path_739" data-name="Path 739" d="M871.329,1846.313" transform="translate(-743.308 -237.202)" fill="#fff"/>
      <path id="Path_740" data-name="Path 740" d="M840.06,1738.475s-.159-.079-.157-.2.354-2.086,1.277-2.086,1.279,2.075,1.279,2.075.011.212-.171.212Z" transform="translate(-712.417 -128.955)" fill="#22212c"/>
      <path id="Path_741" data-name="Path 741" d="M4041.15,1759.713s.159-.079.157-.2-.354-2.086-1.277-2.086-1.279,2.076-1.279,2.076-.011.212.171.212Z" transform="translate(-3856.773 -149.831)" fill="#22212c"/>
      <path id="Path_742" data-name="Path 742" d="M3975.282,2065.459v-1.676l-4.82-.045v1.691s.037.246,2.332.246S3975.282,2065.459,3975.282,2065.459Z" transform="translate(-3789.648 -450.577)" fill="#514b4d"/>
      <path id="Path_743" data-name="Path 743" d="M3974.05,1970.6l.126.037,1.1.73v.9s.06.156-2.376.156-2.436-.2-2.436-.2v-.938l1.266-.685Z" transform="translate(-3789.645 -359.095)" fill="#22212c"/>
      <path id="Path_744" data-name="Path 744" d="M3267.086,1844.957c.4.029,4.511-.258,5.157-.305s3.778-.358,4.089-.352,2.371.158,2.564.2c.14.03.49.065.674.083.019-.089.078-.144.235-.144h2.37c.053,0,.093.051.122.135.2-.026.517-.072.775-.133a14.332,14.332,0,0,1,2.746-.375c.986,0,3.1-.018,3.7-.076s5.1-.458,5.075-.346-.469.211-2,.493-6.724,1.179-7.627,1.22c-.764.035-2.2.132-2.624.162-.028.231-.117.431-.374.431h-1.947a.363.363,0,0,1-.306-.151c-1.288-.017-4.164.254-5.414.327-1.308.077-3.972-.141-4.717-.194a11.114,11.114,0,0,1-2.88-.5C3266.3,1845.18,3266.687,1844.927,3267.086,1844.957Z" transform="translate(-3097.708 -234.558)" fill="#cbc9d5"/>
      <path id="Path_745" data-name="Path 745" d="M775.336,2044.221v-1.676l4.82-.045v1.691s-.037.246-2.332.246S775.336,2044.221,775.336,2044.221Z" transform="translate(-648.95 -429.717)" fill="#514b4d"/>
      <path id="Path_746" data-name="Path 746" d="M776.99,1949.359l-.127.037-1.1.73v.9s-.06.156,2.376.156,2.436-.2,2.436-.2v-.939l-1.266-.685Z" transform="translate(-649.375 -338.234)" fill="#22212c"/>
      <path id="Path_747" data-name="Path 747" d="M3120.152,2214.609a16.239,16.239,0,0,1,4.771.252c-.542.118-1.052.289-1.447.333-.77.084-4.716.273-4.716.273l-.146.032C3118.416,2215.035,3118.762,2214.93,3120.152,2214.609Z" transform="translate(-2952.26 -598.676)" fill="#9b9597"/>
      <path id="Path_748" data-name="Path 748" d="M1131.433,2110c-.051.155-.149.261-.219.238s-.085-.167-.034-.322.149-.261.219-.238S1131.484,2109.845,1131.433,2110Z" transform="translate(-998.703 -495.714)" fill="#352623"/>
      <path id="Path_749" data-name="Path 749" d="M1163.771,2107.752c-.051.155-.149.261-.219.238s-.085-.167-.034-.321.149-.261.219-.238S1163.822,2107.6,1163.771,2107.752Z" transform="translate(-1030.49 -493.506)" fill="#352623"/>
      <path id="Path_750" data-name="Path 750" d="M1191.279,2106.525c-.051.155-.149.261-.219.238s-.085-.167-.034-.322.149-.261.219-.238S1191.33,2106.371,1191.279,2106.525Z" transform="translate(-1057.529 -492.301)" fill="#352623"/>
      <path id="Path_751" data-name="Path 751" d="M1223.616,2104.278c-.051.155-.149.261-.219.238s-.085-.167-.034-.321.149-.261.219-.238S1223.667,2104.123,1223.616,2104.278Z" transform="translate(-1089.315 -490.094)" fill="#352623"/>
      <path id="Path_752" data-name="Path 752" d="M1252.3,2103.969c-.051.155-.149.261-.219.238s-.085-.167-.034-.321.149-.261.219-.238S1252.354,2103.814,1252.3,2103.969Z" transform="translate(-1117.514 -489.79)" fill="#352623"/>
      <path id="Path_753" data-name="Path 753" d="M3778.969,2105.867c.051.155.148.261.218.238s.086-.167.034-.321-.149-.261-.219-.238S3778.918,2105.713,3778.969,2105.867Z" transform="translate(-3601.386 -491.655)" fill="#352623"/>
      <path id="Path_754" data-name="Path 754" d="M3746.631,2103.619c.051.154.149.261.219.238s.085-.167.034-.322-.149-.261-.219-.238S3746.58,2103.464,3746.631,2103.619Z" transform="translate(-3569.6 -489.446)" fill="#352623"/>
      <path id="Path_755" data-name="Path 755" d="M3719.124,2102.391c.051.154.149.261.219.238s.085-.167.033-.322-.148-.261-.219-.238S3719.073,2102.237,3719.124,2102.391Z" transform="translate(-3542.561 -488.241)" fill="#352623"/>
      <path id="Path_756" data-name="Path 756" d="M3686.786,2100.145c.051.155.148.261.218.238s.085-.166.035-.321-.149-.261-.219-.238S3686.734,2099.99,3686.786,2100.145Z" transform="translate(-3510.774 -486.034)" fill="#352623"/>
      <path id="Path_757" data-name="Path 757" d="M3658.1,2099.835c.051.155.148.261.219.238s.085-.167.034-.321-.149-.261-.219-.238S3658.047,2099.68,3658.1,2099.835Z" transform="translate(-3482.575 -485.73)" fill="#352623"/>
      <g id="Group_300" data-name="Group 300" transform="translate(115.14 1608.703)">
        <path id="Path_758" data-name="Path 758" d="M182.567,1841.8c-.356-.051-2.033.136-6.218-.135-.868-.056-1.533-.128-2.041-.206.264.052.591.114.993.188,1.531.282,6.723,1.179,7.626,1.22.747.034,2.137.128,2.594.16C185.365,1842.506,182.891,1841.842,182.567,1841.8Z" transform="translate(-173.301 -1841.129)" fill="#b9b7c4"/>
        <path id="Path_759" data-name="Path 759" d="M142.642,1823.719c-.4.029-4.511-.258-5.157-.305s-3.778-.358-4.089-.352-2.37.158-2.564.2c-.14.03-.49.065-.674.083-.019-.089-.078-.144-.235-.144h-2.37c-.053,0-.094.051-.122.136-.2-.026-.517-.072-.775-.133a14.339,14.339,0,0,0-2.746-.376c-.986,0-3.1-.017-3.7-.076s-5.1-.458-5.075-.346c.017.082.265.158,1.008.305.508.078,1.173.15,2.041.206,4.185.271,5.862.085,6.217.135.324.046,2.8.711,2.955,1.226l.03,0c.028.231.117.431.374.431h1.948a.363.363,0,0,0,.306-.151c1.288-.017,4.164.254,5.414.327,1.308.076,3.972-.141,4.717-.194a11.135,11.135,0,0,0,2.88-.5C143.428,1823.942,143.041,1823.689,142.642,1823.719Z" transform="translate(-115.14 -1822.385)" fill="#cbc9d5"/>
      </g>
      <path id="Path_760" data-name="Path 760" d="M2320.767,2503.215v2.017s-.213.412,3.225.412,3.125-.256,3.125-.256v-2.159s-2.017.114-2.841.114S2320.767,2503.215,2320.767,2503.215Z" transform="translate(-2168.052 -882.224)" fill="#252527"/>
      <path id="Path_761" data-name="Path 761" d="M2457.888,2526.6a.874.874,0,1,1-.874-.874A.874.874,0,0,1,2457.888,2526.6Z" transform="translate(-2301.123 -904.353)"/>
      <path id="Path_762" data-name="Path 762" d="M2469.164,2538.076a.675.675,0,1,1-.675-.675A.675.675,0,0,1,2469.164,2538.076Z" transform="translate(-2312.598 -915.827)" fill="#313133"/>
      <path id="Path_763" data-name="Path 763" d="M1942.237,2185.807a.051.051,0,0,1-.03-.092l.542-.39a.052.052,0,0,1,.071.012.051.051,0,0,1-.012.071l-.542.39A.05.05,0,0,1,1942.237,2185.807Z" transform="translate(-1795.923 -570.012)" fill="#58575d"/>
      <path id="Path_764" data-name="Path 764" d="M1970.084,2181.07a.05.05,0,0,1-.04-.02.051.051,0,0,1,.009-.071l.813-.627a.051.051,0,0,1,.071.01.051.051,0,0,1-.009.071l-.813.627A.051.051,0,0,1,1970.084,2181.07Z" transform="translate(-1823.296 -565.124)" fill="#58575d"/>
      <path id="Path_765" data-name="Path 765" d="M1998.925,2179.266a.049.049,0,0,1-.031-.011.05.05,0,0,1-.008-.071,3.49,3.49,0,0,1,.949-.827.051.051,0,0,1,.068.022.05.05,0,0,1-.022.068,3.462,3.462,0,0,0-.915.8A.051.051,0,0,1,1998.925,2179.266Z" transform="translate(-1851.645 -563.166)" fill="#58575d"/>
      <path id="Path_766" data-name="Path 766" d="M2025.776,2177.566l-.015,0a.051.051,0,0,1-.033-.064c.1-.329,1.123-1.047,1.239-1.128a.051.051,0,0,1,.058.083,4.84,4.84,0,0,0-1.2,1.075A.051.051,0,0,1,2025.776,2177.566Z" transform="translate(-1878.039 -561.21)" fill="#58575d"/>
      <path id="Path_767" data-name="Path 767" d="M2051.633,2187.577a.053.053,0,0,1-.029-.009.051.051,0,0,1-.013-.071,3.9,3.9,0,0,1,1.208-1.187.051.051,0,1,1,.039.094,3.894,3.894,0,0,0-1.163,1.15A.051.051,0,0,1,2051.633,2187.577Z" transform="translate(-1903.455 -570.975)" fill="#58575d"/>
      <path id="Path_768" data-name="Path 768" d="M3033.762,2185.807a.049.049,0,0,0,.041-.022.05.05,0,0,0-.011-.07l-.542-.39a.051.051,0,0,0-.059.083l.542.39A.049.049,0,0,0,3033.762,2185.807Z" transform="translate(-2868.322 -570.012)" fill="#58575d"/>
      <path id="Path_769" data-name="Path 769" d="M2990.274,2181.07a.05.05,0,0,0,.04-.02.051.051,0,0,0-.009-.071l-.814-.627a.051.051,0,0,0-.062.081l.813.627A.05.05,0,0,0,2990.274,2181.07Z" transform="translate(-2825.307 -565.124)" fill="#58575d"/>
      <path id="Path_770" data-name="Path 770" d="M2954.589,2179.266a.051.051,0,0,0,.04-.082,3.5,3.5,0,0,0-.949-.827.051.051,0,0,0-.069.022.05.05,0,0,0,.023.068,3.469,3.469,0,0,1,.915.8A.05.05,0,0,0,2954.589,2179.266Z" transform="translate(-2790.114 -563.166)" fill="#58575d"/>
      <path id="Path_771" data-name="Path 771" d="M2911.119,2177.566l.015,0a.051.051,0,0,0,.033-.064c-.1-.329-1.123-1.047-1.239-1.128a.051.051,0,1,0-.058.083,4.856,4.856,0,0,1,1.2,1.075A.05.05,0,0,0,2911.119,2177.566Z" transform="translate(-2747.101 -561.21)" fill="#58575d"/>
      <path id="Path_772" data-name="Path 772" d="M2887.218,2187.577a.053.053,0,0,0,.028-.009.051.051,0,0,0,.014-.071,3.913,3.913,0,0,0-1.209-1.187.051.051,0,1,0-.038.094,3.9,3.9,0,0,1,1.163,1.15A.05.05,0,0,0,2887.218,2187.577Z" transform="translate(-2723.64 -570.975)" fill="#58575d"/>
      <path id="Path_773" data-name="Path 773" d="M2276.49,2961.75a.756.756,0,1,1-.756-.756A.756.756,0,0,1,2276.49,2961.75Z" transform="translate(-2123.047 -1331.886)" fill="#fff"/>
      <g id="Group_302" data-name="Group 302" transform="translate(152.284 1629.4)">
        <g id="Group_301" data-name="Group 301" transform="translate(0 0.148)">
          <path id="Path_774" data-name="Path 774" d="M2296.232,2987.21v.077a.336.336,0,1,1-.351,0v-.077a.4.4,0,1,0,.352,0Z" transform="translate(-2295.652 -2987.21)" fill="#3c4546"/>
        </g>
        <path id="Path_775" data-name="Path 775" d="M2316.678,2978.884a.048.048,0,0,1-.047.047h0a.047.047,0,0,1-.047-.047v-.3a.047.047,0,0,1,.047-.047h0a.047.047,0,0,1,.047.047Z" transform="translate(-2316.227 -2978.532)" fill="#3c4546"/>
      </g>
      <path id="Path_776" data-name="Path 776" d="M2518.359,2934.832a2.1,2.1,0,1,1-2.1-2.1A2.1,2.1,0,0,1,2518.359,2934.832Z" transform="translate(-2358.153 -1303.833)" fill="#312f33"/>
      <g id="Group_303" data-name="Group 303" transform="translate(156.507 1629.399)">
        <path id="Path_777" data-name="Path 777" d="M2547.129,2964.107a1.593,1.593,0,1,1-1.593-1.593A1.593,1.593,0,0,1,2547.129,2964.107Z" transform="translate(-2543.936 -2962.508)" fill="#19181d"/>
        <path id="Path_778" data-name="Path 778" d="M2545.126,2965.3a1.6,1.6,0,1,1,1.6-1.6A1.6,1.6,0,0,1,2545.126,2965.3Zm0-3.185a1.586,1.586,0,1,0,1.585,1.585A1.587,1.587,0,0,0,2545.126,2962.112Z" transform="translate(-2543.526 -2962.098)" fill="#151314"/>
      </g>
      <path id="Path_779" data-name="Path 779" d="M2572.167,2989.589a1.151,1.151,0,1,1-1.151-1.151A1.151,1.151,0,0,1,2572.167,2989.589Z" transform="translate(-2412.91 -1358.813)" fill="#373638"/>
      <path id="Path_780" data-name="Path 780" d="M2587.472,3015.286a.325.325,0,1,1-.325-.325A.325.325,0,0,1,2587.472,3015.286Z" transform="translate(-2429.578 -1384.923)" fill="#151314"/>
      <path id="Path_781" data-name="Path 781" d="M2245.072,3140.014a.549.549,0,0,1-.549.549h-3.454a.549.549,0,0,1-.55-.549h0a.549.549,0,0,1,.55-.55h3.454a.549.549,0,0,1,.549.55Z" transform="translate(-2089.174 -1507.044)" fill="#373638"/>
      <g id="Group_299" data-name="Group 299" transform="translate(145.353 1605)">
        <path id="Path_728" data-name="Path 728" d="M1899.213,1605c-5.663,0-10.275,3.033-10.453,6.821h20.906C1909.488,1608.033,1904.876,1605,1899.213,1605Z" transform="translate(-1888.76 -1605)" fill="#cbccce"/>
      </g>
    </g>
  </g>
</svg>
