<svg xmlns="http://www.w3.org/2000/svg" width="38.688" height="32.843" viewBox="0 0 38.688 32.843">
    <g id="Icon" transform="translate(-94.545 -523.884)">
        <g id="offer" transform="translate(94.545 544.634)">
            <path id="Path_1568" data-name="Path 1568" d="M0,336H7.166v11.465H0Zm0,0"
                transform="translate(0 -336)" fill="#4a4a56" />
            <path id="Path_1569" data-name="Path 1569" d="M40,336h1.433v6.449H40Zm0,0"
                transform="translate(-36.417 -336)" fill="#676b7f" />
            <path id="Path_1570" data-name="Path 1570" d="M40,424h1.433v1.433H40Zm0,0"
                transform="translate(-36.417 -416.118)" fill="#676b7f" />
            <path id="Path_1587" data-name="Path 1587"
                d="M108.95,339.368l-11.035,2.365L87.882,340.3H92.9a2.15,2.15,0,1,0,0-4.3H85.016L80,337.433v7.882l8.957,2.723a1.22,1.22,0,0,0,.717,0l20.208-4.586a2.064,2.064,0,0,0,1.576-2.508A2.139,2.139,0,0,0,108.95,339.368Zm0,0"
                transform="translate(-72.834 -336)" fill="#efccbf" />
        </g>
        <g id="save-time" transform="translate(108.167 523.884)">
            <ellipse id="Ellipse_122" data-name="Ellipse 122" cx="8.39" cy="8.39" rx="8.39"
                ry="8.39" transform="translate(1.864 1.68)" fill="#e9eef2" />
            <g id="Group_1046" data-name="Group 1046" transform="translate(1.614 1.614)">
                <path id="Path_2259" data-name="Path 2259"
                    d="M248.538,115.765a.538.538,0,0,1-.538-.538v-2.689a.538.538,0,1,1,1.076,0v2.689A.538.538,0,0,1,248.538,115.765Z"
                    transform="translate(-239.932 -107.697)" fill="#9aa3a8" />
                <path id="Path_2260" data-name="Path 2260"
                    d="M268.3,169.076h-3.765a.538.538,0,0,1,0-1.076H268.3a.538.538,0,0,1,0,1.076Z"
                    transform="translate(-254.856 -159.932)" fill="#9aa3a8" />
                <path id="Path_2261" data-name="Path 2261"
                    d="M248.538,50.152a.538.538,0,0,1-.538-.538V48.538a.538.538,0,1,1,1.076,0v1.076A.538.538,0,0,1,248.538,50.152Z"
                    transform="translate(-239.932 -48)" fill="#9aa3a8" />
                <path id="Path_2262" data-name="Path 2262"
                    d="M248.538,274.152a.538.538,0,0,1-.538-.538v-1.076a.538.538,0,1,1,1.076,0v1.076A.538.538,0,0,1,248.538,274.152Z"
                    transform="translate(-239.932 -256.939)" fill="#9aa3a8" />
                <path id="Path_2263" data-name="Path 2263"
                    d="M353.614,169.076h-1.076a.538.538,0,0,1,0-1.076h1.076a.538.538,0,0,1,0,1.076Z"
                    transform="translate(-336.939 -159.932)" fill="#9aa3a8" />
                <path id="Path_2264" data-name="Path 2264"
                    d="M129.614,169.076h-1.076a.538.538,0,0,1,0-1.076h1.076a.538.538,0,1,1,0,1.076Z"
                    transform="translate(-128 -159.932)" fill="#9aa3a8" />
                <path id="Path_2265" data-name="Path 2265"
                    d="M322.837,243.375a.537.537,0,0,1-.38-.158l-.761-.76a.538.538,0,1,1,.761-.761l.76.761a.538.538,0,0,1-.38.918Z"
                    transform="translate(-308.525 -228.525)" fill="#9aa3a8" />
                <path id="Path_2266" data-name="Path 2266"
                    d="M164.308,84.846a.536.536,0,0,1-.38-.158l-.761-.761a.538.538,0,1,1,.76-.76l.761.76a.538.538,0,0,1-.38.918Z"
                    transform="translate(-160.647 -80.647)" fill="#9aa3a8" />
                <path id="Path_2267" data-name="Path 2267"
                    d="M322.073,84.846a.538.538,0,0,1-.38-.919l.761-.76a.538.538,0,1,1,.76.76l-.76.761A.536.536,0,0,1,322.073,84.846Z"
                    transform="translate(-308.522 -80.647)" fill="#9aa3a8" />
                <path id="Path_2268" data-name="Path 2268"
                    d="M163.688,243.375a.538.538,0,0,1-.38-.918l.76-.761a.538.538,0,1,1,.761.761l-.761.76A.536.536,0,0,1,163.688,243.375Z"
                    transform="translate(-160.787 -228.525)" fill="#9aa3a8" />
            </g>
            <ellipse id="Ellipse_123" data-name="Ellipse 123" cx="0.645" cy="0.645" rx="0.645"
                ry="0.645" transform="translate(9.609 9.425)" fill="#ffb632" />
            <path id="Path_2269" data-name="Path 2269"
                d="M114.22,24a10.22,10.22,0,1,0,10.22,10.22A10.22,10.22,0,0,0,114.22,24Zm0,18.288a8.068,8.068,0,1,1,8.068-8.068A8.068,8.068,0,0,1,114.22,42.288Z"
                transform="translate(-104 -24)" fill="#ffb632" />
        </g>
    </g>
</svg>
