<svg xmlns="http://www.w3.org/2000/svg" xmlns:xlink="http://www.w3.org/1999/xlink" width="189.5" height="150.111" viewBox="0 0 189.5 150.111">
    <defs>
        <filter id="Rectangle_2" x="0" y="6.901" width="189.5" height="143.21" filterUnits="userSpaceOnUse">
            <feOffset dy="3" input="SourceAlpha"/>
            <feGaussianBlur stdDeviation="3" result="blur"/>
            <feFlood flood-opacity="0.161"/>
            <feComposite operator="in" in2="blur"/>
            <feComposite in="SourceGraphic"/>
        </filter>
    </defs>
    <g id="Group_1765" data-name="Group 1765" transform="translate(-78.046 -146)">
        <g id="Group_25" data-name="Group 25" transform="translate(-38.454 -82.389)">
            <g id="Group_16" data-name="Group 16">
                <g transform="matrix(1, 0, 0, 1, 116.5, 228.39)" filter="url(#Rectangle_2)">
                    <rect id="Rectangle_2-2" data-name="Rectangle 2" width="171.5" height="125.21" rx="8.382" transform="translate(9 12.9)" fill="#fff"/>
                </g>
                <path id="Path_11" data-name="Path 11" d="M125.5,275.884V247.651a6.361,6.361,0,0,1,6.361-6.361H290.639A6.361,6.361,0,0,1,297,247.651v27.564Z" fill="#ef929c"/>
                <g id="Group_11" data-name="Group 11">
                    <rect id="Rectangle_3" data-name="Rectangle 3" width="18.971" height="15.177" transform="translate(138.78 282.647)" fill="#ef929c"/>
                    <rect id="Rectangle_4" data-name="Rectangle 4" width="18.971" height="15.177" transform="translate(138.78 309.207)" fill="#ef929c" opacity="0.54"/>
                    <rect id="Rectangle_5" data-name="Rectangle 5" width="18.971" height="15.177" transform="translate(138.78 335.008)" fill="#ef929c" opacity="0.54"/>
                </g>
                <g id="Group_12" data-name="Group 12">
                    <rect id="Rectangle_6" data-name="Rectangle 6" width="18.971" height="15.177" transform="translate(171.41 282.647)" fill="#ef929c" opacity="0.54"/>
                    <rect id="Rectangle_7" data-name="Rectangle 7" width="18.971" height="15.177" transform="translate(171.41 309.207)" fill="#ef929c"/>
                    <rect id="Rectangle_8" data-name="Rectangle 8" width="18.971" height="15.177" transform="translate(171.41 335.008)" fill="#ef929c" opacity="0.54"/>
                </g>
                <g id="Group_13" data-name="Group 13" opacity="0.98">
                    <rect id="Rectangle_9" data-name="Rectangle 9" width="18.971" height="15.177" transform="translate(203.282 282.647)" fill="#ef929c" opacity="0.5"/>
                    <rect id="Rectangle_10" data-name="Rectangle 10" width="18.971" height="15.177" transform="translate(203.282 309.207)" fill="#ef929c" opacity="0.5"/>
                    <rect id="Rectangle_11" data-name="Rectangle 11" width="18.971" height="15.177" transform="translate(203.282 335.008)" fill="#ef929c"/>
                </g>
                <g id="Group_14" data-name="Group 14" opacity="0.54">
                    <rect id="Rectangle_12" data-name="Rectangle 12" width="18.971" height="15.177" transform="translate(235.913 282.647)" fill="#ef929c"/>
                    <rect id="Rectangle_13" data-name="Rectangle 13" width="18.971" height="15.177" transform="translate(235.913 309.207)" fill="#ef929c"/>
                    <rect id="Rectangle_14" data-name="Rectangle 14" width="18.971" height="15.177" transform="translate(235.913 335.008)" fill="#ef929c"/>
                </g>
                <g id="Group_15" data-name="Group 15">
                    <rect id="Rectangle_15" data-name="Rectangle 15" width="18.971" height="15.177" transform="translate(267.025 282.647)" fill="#ef929c" opacity="0.43"/>
                    <rect id="Rectangle_16" data-name="Rectangle 16" width="18.971" height="15.177" transform="translate(267.025 309.207)" fill="#ef929c"/>
                    <rect id="Rectangle_17" data-name="Rectangle 17" width="18.971" height="15.177" transform="translate(267.025 335.008)" fill="#ef929c" opacity="0.43"/>
                </g>
            </g>
            <g id="Group_17" data-name="Group 17">
                <circle id="Ellipse_7" data-name="Ellipse 7" cx="7.589" cy="7.589" r="7.589" transform="translate(138.918 246.602)" fill="#fff" opacity="0.58"/>
                <path id="Path_12" data-name="Path 12" d="M146.506,256.922h0a3.349,3.349,0,0,1-3.339-3.339V231.728a3.349,3.349,0,0,1,3.339-3.339h0a3.349,3.349,0,0,1,3.339,3.339v21.855A3.348,3.348,0,0,1,146.506,256.922Z" fill="#3f4262"/>
            </g>
            <g id="Group_18" data-name="Group 18">
                <circle id="Ellipse_8" data-name="Ellipse 8" cx="7.589" cy="7.589" r="7.589" transform="translate(161.391 246.602)" fill="#fff" opacity="0.58"/>
                <path id="Path_13" data-name="Path 13" d="M168.98,256.922h0a3.348,3.348,0,0,1-3.339-3.339V231.728a3.349,3.349,0,0,1,3.339-3.339h0a3.349,3.349,0,0,1,3.339,3.339v21.855A3.349,3.349,0,0,1,168.98,256.922Z" fill="#3f4262"/>
            </g>
            <g id="Group_19" data-name="Group 19">
                <circle id="Ellipse_9" data-name="Ellipse 9" cx="7.589" cy="7.589" r="7.589" transform="translate(182.581 246.602)" fill="#fff" opacity="0.58"/>
                <path id="Path_14" data-name="Path 14" d="M190.169,256.922h0a3.349,3.349,0,0,1-3.339-3.339V231.728a3.349,3.349,0,0,1,3.339-3.339h0a3.349,3.349,0,0,1,3.339,3.339v21.855A3.348,3.348,0,0,1,190.169,256.922Z" fill="#3f4262"/>
            </g>
            <circle id="Ellipse_10" data-name="Ellipse 10" cx="7.589" cy="7.589" r="7.589" transform="translate(205.055 246.602)" fill="#fff" opacity="0.58"/>
            <path id="Path_15" data-name="Path 15" d="M212.643,256.922h0a3.349,3.349,0,0,1-3.339-3.339V231.728a3.349,3.349,0,0,1,3.339-3.339h0a3.349,3.349,0,0,1,3.339,3.339v21.855A3.349,3.349,0,0,1,212.643,256.922Z" fill="#3f4262"/>
            <circle id="Ellipse_11" data-name="Ellipse 11" cx="7.589" cy="7.589" r="7.589" transform="translate(226.186 246.602)" fill="#fff" opacity="0.58"/>
            <path id="Path_16" data-name="Path 16" d="M233.774,256.922h0a3.349,3.349,0,0,1-3.339-3.339V231.728a3.349,3.349,0,0,1,3.339-3.339h0a3.349,3.349,0,0,1,3.339,3.339v21.855A3.349,3.349,0,0,1,233.774,256.922Z" fill="#3f4262"/>
            <circle id="Ellipse_12" data-name="Ellipse 12" cx="7.589" cy="7.589" r="7.589" transform="translate(248.659 246.602)" fill="#fff" opacity="0.58"/>
            <path id="Path_17" data-name="Path 17" d="M256.248,256.922h0a3.348,3.348,0,0,1-3.339-3.339V231.728a3.349,3.349,0,0,1,3.339-3.339h0a3.349,3.349,0,0,1,3.339,3.339v21.855A3.349,3.349,0,0,1,256.248,256.922Z" fill="#3f4262"/>
            <circle id="Ellipse_13" data-name="Ellipse 13" cx="7.589" cy="7.589" r="7.589" transform="translate(269.849 246.602)" fill="#fff" opacity="0.58"/>
            <path id="Path_18" data-name="Path 18" d="M277.437,256.922h0a3.349,3.349,0,0,1-3.339-3.339V231.728a3.349,3.349,0,0,1,3.339-3.339h0a3.349,3.349,0,0,1,3.339,3.339v21.855A3.349,3.349,0,0,1,277.437,256.922Z" fill="#3f4262"/>
            <path id="Path_30846" data-name="Path 30846" d="M5869.433,2942.352a13.325,13.325,0,0,0-1.089-19.911,16.917,16.917,0,0,0-2.4-1.6c-.561-.316-.673-1.121-1.357-1.325-.095.417.307.425.55.575.088.055.172.142.117.256-.027.055-.155.124-.171.109-.277-.237-.773-.1-.908-.609-.175-.661-.694-.846-1.189-.425-.473.4-.675-.138-1.022-.133-.909.012-1.817-.055-2.727-.061-.8,0-1.608.005-2.408.067-.256.02-.629-.211-.791.253-.057.162-.313.208-.487.114-.2-.106-.143-.324-.115-.495.084-.519.538-.609.929-.708a14.38,14.38,0,0,1,7.656.026,15.027,15.027,0,0,1,10.763,10.489,14.052,14.052,0,0,1-2.562,13.272c-.538.695-1.394,1.127-1.822,1.971a.854.854,0,0,1-.907.331c-.423-.048-.729.068-.706.577a.681.681,0,0,1-.406.614,13.663,13.663,0,0,1-19.652-5.344,11.869,11.869,0,0,1,2.219-14.118,10.314,10.314,0,0,1,3.457-2.228,11.56,11.56,0,0,0-3.667,16.814c3.7,5.183,12.363,6.359,18.695,1.492" transform="translate(-5616.398 -2641.569)" fill="#44a5a9"/>
        </g>
        <g id="checklist" transform="translate(54.767 221.949)">
            <circle id="Ellipse_164" data-name="Ellipse 164" cx="23.904" cy="23.904" r="23.904" transform="translate(26.206 26.206)" fill="#2cbfcd"/>
            <path id="Path_30844" data-name="Path 30844" d="M52.532,68.624a2.829,2.829,0,0,1-2.032-.86l-9.2-9.479a2.831,2.831,0,1,1,4.063-3.943l7.1,7.313L65.3,47.487a2.831,2.831,0,1,1,4.2,3.8L54.634,67.7a2.834,2.834,0,0,1-2.054.928Z" transform="translate(-5.253 -7.479)" fill="#fff"/>
        </g>
    </g>
</svg>
