<svg xmlns="http://www.w3.org/2000/svg" xmlns:xlink="http://www.w3.org/1999/xlink" width="158.376" height="205.826" viewBox="0 0 158.376 205.826">
    <defs>
        <filter id="Path_30565" x="0" y="12.195" width="158.376" height="193.631" filterUnits="userSpaceOnUse">
            <feOffset dy="3" input="SourceAlpha"/>
            <feGaussianBlur stdDeviation="3" result="blur"/>
            <feFlood flood-opacity="0.161"/>
            <feComposite operator="in" in2="blur"/>
            <feComposite in="SourceGraphic"/>
        </filter>
    </defs>
    <g id="Group_1623" data-name="Group 1623" transform="translate(-87.882 -54.811)">
        <g id="Group_1622" data-name="Group 1622">
            <path id="Path_30562" data-name="Path 30562" d="M91.091,134.212,185.653,86.92V54.811L91.091,102.1Z" fill="#2cbfcd"/>
            <path id="Path_30563" data-name="Path 30563" d="M177.988,82.183V67.214l-82.62,41.338v14.97Z" fill="#026e74"/>
            <path id="Path_30564" data-name="Path 30564" d="M175.277,75.794s61.185,14.9,60.215,131.914L158.986,248.64l-1.829-1.649c-1.492-115.549-60.215-132.33-60.215-132.33l-.06-2.141Z" fill="#037980"/>
            <g transform="matrix(1, 0, 0, 1, 87.88, 54.81)" filter="url(#Path_30565)">
                <path id="Path_30565-2" data-name="Path 30565" d="M174.892,73.006s62.366,18.067,62.366,135.086L158.99,248.637c0-117.018-62.108-136.117-62.108-136.117Z" transform="translate(-87.88 -54.81)" fill="#fcfcfc"/>
            </g>
            <path id="Path_30566" data-name="Path 30566" d="M177.988,74.191,99.852,113.706v2.068l-4.485,1.679v-8.9l82.62-41.338Z" fill="#026e74" opacity="0.3"/>
            <g id="Group_1621" data-name="Group 1621">
                <path id="Path_30567" data-name="Path 30567" d="M132.175,128.327l59.97-29.992q1.686,1.6,3.418,3.5l-59.978,29.995C134.435,130.562,133.294,129.4,132.175,128.327Z" fill="#2cbfcd"/>
                <path id="Path_30568" data-name="Path 30568" d="M201.562,109.321l-59.981,30q-1.413-2-2.835-3.787l59.976-29.995C199.671,106.728,200.62,107.983,201.562,109.321Z" fill="#2cbfcd"/>
                <path id="Path_30569" data-name="Path 30569" d="M206.543,117.322l-59.961,29.986q-1.164-2.1-2.363-4.022L204.185,113.3Q205.38,115.219,206.543,117.322Z" fill="#2cbfcd"/>
                <path id="Path_30570" data-name="Path 30570" d="M210.671,125.748l-59.936,29.975q-.959-2.19-1.962-4.223l59.951-29.982Q209.72,123.555,210.671,125.748Z" fill="#2cbfcd"/>
                <path id="Path_30571" data-name="Path 30571" d="M214.047,134.551l-59.9,29.956c-.518-1.515-1.056-2.977-1.607-4.4l59.92-29.966Q213.278,132.278,214.047,134.551Z" fill="#2cbfcd"/>
            </g>
        </g>
        <path id="Path_30572" data-name="Path 30572" d="M170.154,235.154l58.74-29.376V199.9l-58.74,29.376Z" fill="#2cbfcd"/>
        <g id="Group_26" data-name="Group 26" transform="translate(-93.453 -127.467)">
            <path id="Path_30831" data-name="Path 30831" d="M27.231,0A27.394,27.394,0,0,1,54.462,27.553,27.394,27.394,0,0,1,27.231,55.107,27.394,27.394,0,0,1,0,27.553,27.394,27.394,0,0,1,27.231,0Z" transform="translate(184.543 321)" fill="#ffaa38"/>
            <ellipse id="Ellipse_15" data-name="Ellipse 15" cx="20.931" cy="21.179" rx="20.931" ry="21.179" transform="translate(190.843 327.374)" fill="#fff"/>
            <rect id="Rectangle_18" data-name="Rectangle 18" width="2.03" height="14.38" rx="0.9" transform="translate(210.759 332.651)" fill="#fab85f"/>
            <rect id="Rectangle_19" data-name="Rectangle 19" width="2.03" height="11.55" rx="0.9" transform="translate(223.383 347.887) rotate(90)" fill="#fab85f"/>
            <path id="Path_19" data-name="Path 19" d="M230.261,364.178a3.045,3.045,0,1,1-3.046-3.082A3.063,3.063,0,0,1,230.261,364.178Z" transform="translate(-15.442 -15.624)" fill="#fab85f"/>
        </g>
    </g>
</svg>
