<svg xmlns="http://www.w3.org/2000/svg" width="38.222" height="46.594" viewBox="0 0 38.222 46.594">
  <g id="worker" transform="translate(-46)">
    <path id="Path_2396" data-name="Path 2396" d="M401.46,353.391v5.733H396v-14.3A9.515,9.515,0,0,1,401.46,353.391Z" transform="translate(-318.148 -313.44)" fill="#0c6164"/>
    <path id="Path_2397" data-name="Path 2397" d="M139.661,133a1.82,1.82,0,0,1,0,3.64H117.82a1.82,1.82,0,0,1,0-3.64Z" transform="translate(-63.63 -120.896)" fill="#4dbbeb"/>
    <path id="Path_2398" data-name="Path 2398" d="M143.28,12.275v-.182A2.073,2.073,0,0,1,145.1,10h3.64a2.073,2.073,0,0,1,1.82,2.093v.182a9.1,9.1,0,0,1,7.28,8.918H136A9.1,9.1,0,0,1,143.28,12.275Z" transform="translate(-81.81 -9.09)" fill="#40a0a4"/>
    <path id="Path_2399" data-name="Path 2399" d="M137.841,336H134.2l-5.46,5.733L123.28,336h-3.64a8.666,8.666,0,0,0-3.64.8v14.3h25.481V336.8A8.666,8.666,0,0,0,137.841,336Z" transform="translate(-63.63 -305.422)" fill="#40a0a4"/>
    <path id="Path_2400" data-name="Path 2400" d="M138.751,173H118.73a2.73,2.73,0,0,0,0,5.46h1.09a9.578,9.578,0,0,0,2.485,4.751,9.321,9.321,0,0,0,1.023.92l-.048.063v3.639l5.46,5.733,5.46-5.733v-3.639l-.048-.063a9.579,9.579,0,0,0,3.508-5.671h1.09a2.73,2.73,0,0,0,0-5.46Z" transform="translate(-63.63 -157.256)" fill="#fff"/>
    <path id="Path_2401" data-name="Path 2401" d="M61.46,344.82v14.3H56v-5.733A9.515,9.515,0,0,1,61.46,344.82Z" transform="translate(-9.09 -313.44)" fill="#0c6164"/>
    <path id="Path_2402" data-name="Path 2402" d="M346.91,430.82a.91.91,0,1,0-.91-.91A.91.91,0,0,0,346.91,430.82Z" transform="translate(-272.699 -389.959)"/>
    <path id="Path_2403" data-name="Path 2403" d="M146.91,429a.91.91,0,1,0,.91.91A.91.91,0,0,0,146.91,429Z" transform="translate(-90.9 -389.959)"/>
    <path id="Path_2404" data-name="Path 2404" d="M82.552,34.328a10.284,10.284,0,0,0-4.081-3.659.905.905,0,0,0-.517-.238,9.52,9.52,0,0,0-3.742-.763h-2.73v-2.4a10.439,10.439,0,0,0,3.267-5.152h.374a3.638,3.638,0,0,0,2.674-6.107c.057-.049.113-.1.167-.153A2.729,2.729,0,0,0,76.91,11.34a10.045,10.045,0,0,0-7.3-8.882A2.9,2.9,0,0,0,66.931,0h-3.64a2.9,2.9,0,0,0-2.677,2.458,10.045,10.045,0,0,0-7.3,8.88,2.729,2.729,0,0,0-.884,4.668A3.638,3.638,0,0,0,55.1,22.114h.371a10.461,10.461,0,0,0,2.548,4.471c.229.238.471.465.721.681v2.4H56.01a9.521,9.521,0,0,0-3.742.763.906.906,0,0,0-.517.238A10.427,10.427,0,0,0,46,39.951v5.733a.91.91,0,0,0,.91.91h36.4a.91.91,0,0,0,.91-.91V39.951A10.347,10.347,0,0,0,82.552,34.328Zm-9.25-2.84v5.733a.91.91,0,1,0,1.82,0V31.541a7.7,7.7,0,0,1,1.82.444V44.774h-1.82V42.681a.91.91,0,1,0-1.82,0v2.093h-7.28v-8.1l4.94-5.187ZM60.561,28.518a9.584,9.584,0,0,0,9.1,0v1.695l-4.55,4.778-4.55-4.778Zm14.561-8.224H75.08c.027-.3.041-.607.041-.91v-2.73a1.82,1.82,0,1,1,0,3.64ZM60.561,4.381V8.463a.91.91,0,0,0,1.82,0V3c0-.564.476-1.183.91-1.183h3.64c.434,0,.91.619.91,1.183v5.46a.91.91,0,1,0,1.82,0V4.381a8.226,8.226,0,0,1,5.409,6.813H55.151A8.226,8.226,0,0,1,60.561,4.381Zm-7.014,8.9a.9.9,0,0,1,.643-.267H76.031a.91.91,0,0,1,0,1.82H54.19a.91.91,0,0,1-.643-1.553Zm-.267,5.193a1.822,1.822,0,0,1,1.82-1.82v2.73c0,.3.014.607.041.91H55.1A1.822,1.822,0,0,1,53.28,18.474Zm3.806,2.565c0-.01,0-.02-.006-.029a8.393,8.393,0,0,1-.16-1.625v-2.73H73.3v2.73a8.4,8.4,0,0,1-.16,1.625c0,.01,0,.02-.006.03a8.621,8.621,0,0,1-3.171,5.118,7.813,7.813,0,0,1-9.709,0,8.433,8.433,0,0,1-.923-.831A8.63,8.63,0,0,1,57.086,21.039Zm2.175,10.449,4.94,5.187v8.1h-7.28V42.681a.91.91,0,0,0-1.82,0v2.093H53.28V31.986a7.7,7.7,0,0,1,1.82-.444v5.679a.91.91,0,0,0,1.82,0V31.488ZM47.82,39.951a8.694,8.694,0,0,1,3.64-7V44.774H47.82ZM82.4,44.774h-3.64V32.955a8.694,8.694,0,0,1,3.64,7Z" fill="#0c6164"/>
  </g>
</svg>
